{
	"random": "28",
	"price": "41.194",
	"isReadyForSale": "true",
	"listedDate": "2022-11-23",
	"particulars": "DairyProduct",
	"name": "Daune",
	"cultivationCity": "Prague",
	"cultivationCountry": "Norway",
	"cultivationCountryCode": "SC",
	"companyEmail": "undefined@gmail.com",
	"manufacturingCountries": [
		"Carilyn",
		"Dacia",
		"Jenda",
		"Isa",
		"Jere"
	],
	"salesDetails": [
		{
			"itemsSold": "0",
			"price": "49.289",
			"soldDate": "2022-03-22"
		},
		{
			"itemsSold": "1",
			"price": "3.21",
			"soldDate": "2022-04-20"
		},
		{
			"itemsSold": "2",
			"price": "85.519",
			"soldDate": "2022-01-08"
		}
	]
}