{
	"random": "90",
	"price": "55.331",
	"isReadyForSale": "true",
	"listedDate": "2022-06-26",
	"particulars": "Not For Sale",
	"name": "Neila",
	"cultivationCity": "Port Moresby",
	"cultivationCountry": "Iceland",
	"cultivationCountryCode": "SC",
	"companyEmail": "undefined@gmail.com",
	"manufacturingCountries": [
		"Kathy",
		"Atlanta",
		"Deedee",
		"Tressa",
		"Ana"
	],
	"salesDetails": [
		{
			"itemsSold": "0",
			"price": "98.924",
			"soldDate": "2022-01-13"
		},
		{
			"itemsSold": "1",
			"price": "91.269",
			"soldDate": "2022-11-27"
		},
		{
			"itemsSold": "2",
			"price": "90.622",
			"soldDate": "2022-12-04"
		}
	]
}