{
	"random": "25",
	"price": "83.608",
	"isReadyForSale": "true",
	"listedDate": "2022-11-11",
	"particulars": "Artifically Flavoured",
	"name": "Audrie",
	"cultivationCity": "Cardiff",
	"cultivationCountry": "Monaco",
	"cultivationCountryCode": "GB",
	"companyEmail": "undefined@gmail.com",
	"manufacturingCountries": [
		"Deirdre",
		"Hildegaard",
		"Janenna",
		"Myriam",
		"Zsa Zsa"
	],
	"salesDetails": [
		{
			"itemsSold": "0",
			"price": "87.396",
			"soldDate": "2022-08-02"
		},
		{
			"itemsSold": "1",
			"price": "50.188",
			"soldDate": "2022-12-02"
		},
		{
			"itemsSold": "2",
			"price": "30.422",
			"soldDate": "2022-04-10"
		}
	]
}