{
	"random": "8",
	"price": "65.112",
	"isReadyForSale": "false",
	"listedDate": "2022-10-20",
	"particulars": "Not For Sale",
	"name": "Patricia",
	"cultivationCity": "Bujumbura",
	"cultivationCountry": "Lebanon",
	"cultivationCountryCode": "TT",
	"companyEmail": "undefined@gmail.com",
	"manufacturingCountries": [
		"Corly",
		"Sherrie",
		"Ninnetta",
		"Ingrid",
		"Joy"
	],
	"salesDetails": [
		{
			"itemsSold": "0",
			"price": "69.458",
			"soldDate": "2022-08-11"
		},
		{
			"itemsSold": "1",
			"price": "59.499",
			"soldDate": "2022-05-12"
		},
		{
			"itemsSold": "2",
			"price": "37.547",
			"soldDate": "2023-01-12"
		}
	]
}