{
	"random": "18",
	"price": "99.252",
	"isReadyForSale": "false",
	"listedDate": "2022-11-29",
	"particulars": "Artifically Flavoured",
	"name": "Shel",
	"cultivationCity": "Porto Velho",
	"cultivationCountry": "Lesotho",
	"cultivationCountryCode": "CH",
	"companyEmail": "undefined@gmail.com",
	"manufacturingCountries": [
		"Kayla",
		"Jorry",
		"Asia",
		"Sheree",
		"Ofilia"
	],
	"salesDetails": [
		{
			"itemsSold": "0",
			"price": "32.72",
			"soldDate": "2022-04-18"
		},
		{
			"itemsSold": "1",
			"price": "67.279",
			"soldDate": "2022-07-11"
		},
		{
			"itemsSold": "2",
			"price": "40.734",
			"soldDate": "2023-01-11"
		}
	]
}