{
	"random": "10",
	"price": "42.772",
	"isReadyForSale": "false",
	"listedDate": "2022-11-30",
	"particulars": "DairyProduct",
	"name": "Melanie",
	"cultivationCity": "Chongqing",
	"cultivationCountry": "India",
	"cultivationCountryCode": "BH",
	"companyEmail": "undefined@gmail.com",
	"manufacturingCountries": [
		"Tani",
		"Lynea",
		"Giustina",
		"Maryellen",
		"Antonietta"
	],
	"salesDetails": [
		{
			"itemsSold": "0",
			"price": "32.343",
			"soldDate": "2022-07-14"
		},
		{
			"itemsSold": "1",
			"price": "99.502",
			"soldDate": "2022-11-26"
		},
		{
			"itemsSold": "2",
			"price": "44.696",
			"soldDate": "2022-10-24"
		}
	]
}