{
	"random": "35",
	"price": "99.871",
	"isReadyForSale": "true",
	"listedDate": "2022-10-14",
	"particulars": "Artifically Flavoured",
	"name": "Kate",
	"cultivationCity": "Perm",
	"cultivationCountry": "Jordan",
	"cultivationCountryCode": "GG",
	"companyEmail": "undefined@gmail.com",
	"manufacturingCountries": [
		"Loree",
		"Karina",
		"Vita",
		"Kaia",
		"Maryellen"
	],
	"salesDetails": [
		{
			"itemsSold": "0",
			"price": "52.014",
			"soldDate": "2022-09-19"
		},
		{
			"itemsSold": "1",
			"price": "25.418",
			"soldDate": "2022-10-04"
		},
		{
			"itemsSold": "2",
			"price": "90.36",
			"soldDate": "2022-06-02"
		}
	]
}