{
	"random": "64",
	"price": "60.124",
	"isReadyForSale": "false",
	"listedDate": "2022-09-05",
	"particulars": "Not For Sale",
	"name": "Myriam",
	"cultivationCity": "Palikir",
	"cultivationCountry": "Myanmar",
	"cultivationCountryCode": "IS",
	"companyEmail": "undefined@gmail.com",
	"manufacturingCountries": [
		"Annecorinne",
		"Winifred",
		"Kary",
		"Rayna",
		"Shannah"
	],
	"salesDetails": [
		{
			"itemsSold": "0",
			"price": "24.859",
			"soldDate": "2022-02-17"
		},
		{
			"itemsSold": "1",
			"price": "4.639",
			"soldDate": "2022-10-22"
		},
		{
			"itemsSold": "2",
			"price": "28.284",
			"soldDate": "2022-05-17"
		}
	]
}