{
	"random": "73",
	"price": "30.096",
	"isReadyForSale": "false",
	"listedDate": "2022-12-07",
	"particulars": "Not For Sale",
	"name": "Frank",
	"cultivationCity": "Tagbilaran",
	"cultivationCountry": "Algeria",
	"cultivationCountryCode": "JM",
	"companyEmail": "undefined@gmail.com",
	"manufacturingCountries": [
		"Hollie",
		"Jenda",
		"Candy",
		"Vivia",
		"Rosanne"
	],
	"salesDetails": [
		{
			"itemsSold": "0",
			"price": "26.491",
			"soldDate": "2022-06-19"
		},
		{
			"itemsSold": "1",
			"price": "18.757",
			"soldDate": "2022-03-14"
		},
		{
			"itemsSold": "2",
			"price": "46.414",
			"soldDate": "2022-01-18"
		}
	]
}