{
	"random": "70",
	"price": "95.384",
	"isReadyForSale": "true",
	"listedDate": "2022-01-13",
	"particulars": "DairyProduct",
	"name": "Joeann",
	"cultivationCity": "La Serena",
	"cultivationCountry": "Åland Islands",
	"cultivationCountryCode": "PS",
	"companyEmail": "undefined@gmail.com",
	"manufacturingCountries": [
		"Paola",
		"Albertina",
		"Carlie",
		"Marylou",
		"Emmey"
	],
	"salesDetails": [
		{
			"itemsSold": "0",
			"price": "73.73",
			"soldDate": "2022-12-01"
		},
		{
			"itemsSold": "1",
			"price": "48.019",
			"soldDate": "2022-06-04"
		},
		{
			"itemsSold": "2",
			"price": "57.246",
			"soldDate": "2022-06-17"
		}
	]
}