{
	"random": "72",
	"price": "99.123",
	"isReadyForSale": "true",
	"listedDate": "2022-12-22",
	"particulars": "Artifically Flavoured",
	"name": "Aubrie",
	"cultivationCity": "Kobe",
	"cultivationCountry": "Guinea-Bissau",
	"cultivationCountryCode": "AM",
	"companyEmail": "undefined@gmail.com",
	"manufacturingCountries": [
		"Binny",
		"Ardenia",
		"Carlie",
		"Adriana",
		"Regina"
	],
	"salesDetails": [
		{
			"itemsSold": "0",
			"price": "34.299",
			"soldDate": "2022-04-07"
		},
		{
			"itemsSold": "1",
			"price": "21.062",
			"soldDate": "2022-09-11"
		},
		{
			"itemsSold": "2",
			"price": "86.146",
			"soldDate": "2022-04-15"
		}
	]
}