{
	"random": "7",
	"price": "43.098",
	"isReadyForSale": "false",
	"listedDate": "2022-02-27",
	"particulars": "DairyProduct",
	"name": "Esmeralda",
	"cultivationCity": "Vientiane",
	"cultivationCountry": "Macedonia, The Former Yugoslav Republic of",
	"cultivationCountryCode": "ST",
	"companyEmail": "undefined@gmail.com",
	"manufacturingCountries": [
		"Brandise",
		"Barbi",
		"Grier",
		"Quintina",
		"Raina"
	],
	"salesDetails": [
		{
			"itemsSold": "0",
			"price": "25.35",
			"soldDate": "2022-06-19"
		},
		{
			"itemsSold": "1",
			"price": "25.249",
			"soldDate": "2022-06-23"
		},
		{
			"itemsSold": "2",
			"price": "6.137",
			"soldDate": "2022-01-31"
		}
	]
}