{
	"random": "14",
	"price": "12.528",
	"isReadyForSale": "true",
	"listedDate": "2022-07-12",
	"particulars": "DairyProduct",
	"name": "Collen",
	"cultivationCity": "Tokyo",
	"cultivationCountry": "Djibouti",
	"cultivationCountryCode": "MG",
	"companyEmail": "undefined@gmail.com",
	"manufacturingCountries": [
		"Julieta",
		"Jean",
		"Audrie",
		"Fawne",
		"Aurore"
	],
	"salesDetails": [
		{
			"itemsSold": "0",
			"price": "26.15",
			"soldDate": "2022-05-14"
		},
		{
			"itemsSold": "1",
			"price": "30.892",
			"soldDate": "2022-02-16"
		},
		{
			"itemsSold": "2",
			"price": "79.288",
			"soldDate": "2022-10-19"
		}
	]
}