{
	"random": "69",
	"price": "66.031",
	"isReadyForSale": "true",
	"listedDate": "2022-02-07",
	"particulars": "Not For Sale",
	"name": "Dania",
	"cultivationCity": "Manama",
	"cultivationCountry": "Benin",
	"cultivationCountryCode": "TG",
	"companyEmail": "undefined@gmail.com",
	"manufacturingCountries": [
		"Kathy",
		"Hallie",
		"Concettina",
		"Jinny",
		"Halette"
	],
	"salesDetails": [
		{
			"itemsSold": "0",
			"price": "90.562",
			"soldDate": "2022-06-28"
		},
		{
			"itemsSold": "1",
			"price": "70.311",
			"soldDate": "2022-12-31"
		},
		{
			"itemsSold": "2",
			"price": "9.294",
			"soldDate": "2022-02-18"
		}
	]
}