{
	"random": "67",
	"price": "3.471",
	"isReadyForSale": "true",
	"listedDate": "2022-02-24",
	"particulars": "Not For Sale",
	"name": "Ashlee",
	"cultivationCity": "Mexicali",
	"cultivationCountry": "Cameroon",
	"cultivationCountryCode": "FK",
	"companyEmail": "undefined@gmail.com",
	"manufacturingCountries": [
		"Pamella",
		"Janey",
		"Carly",
		"Charissa",
		"Mady"
	],
	"salesDetails": [
		{
			"itemsSold": "0",
			"price": "8.643",
			"soldDate": "2022-10-29"
		},
		{
			"itemsSold": "1",
			"price": "81.28",
			"soldDate": "2022-11-05"
		},
		{
			"itemsSold": "2",
			"price": "74.436",
			"soldDate": "2022-06-23"
		}
	]
}