{
	"random": "36",
	"price": "27.308",
	"isReadyForSale": "true",
	"listedDate": "2022-02-14",
	"particulars": "Artifically Flavoured",
	"name": "Chickie",
	"cultivationCity": "Winnipeg",
	"cultivationCountry": "Tuvalu",
	"cultivationCountryCode": "MX",
	"companyEmail": "undefined@gmail.com",
	"manufacturingCountries": [
		"Raina",
		"Wendi",
		"Emylee",
		"Sonni",
		"Gabriellia"
	],
	"salesDetails": [
		{
			"itemsSold": "0",
			"price": "67.402",
			"soldDate": "2022-01-22"
		},
		{
			"itemsSold": "1",
			"price": "56.121",
			"soldDate": "2022-04-27"
		},
		{
			"itemsSold": "2",
			"price": "4.482",
			"soldDate": "2022-10-10"
		}
	]
}