{
	"random": "41",
	"price": "76.484",
	"isReadyForSale": "true",
	"listedDate": "2022-01-30",
	"particulars": "DairyProduct",
	"name": "Riannon",
	"cultivationCity": "Mumbai",
	"cultivationCountry": "Dominican Republic",
	"cultivationCountryCode": "OM",
	"companyEmail": "undefined@gmail.com",
	"manufacturingCountries": [
		"Lynnea",
		"Robinia",
		"Vinita",
		"Sheelagh",
		"Adriana"
	],
	"salesDetails": [
		{
			"itemsSold": "0",
			"price": "44.489",
			"soldDate": "2022-09-20"
		},
		{
			"itemsSold": "1",
			"price": "84.237",
			"soldDate": "2022-03-12"
		},
		{
			"itemsSold": "2",
			"price": "31.862",
			"soldDate": "2022-06-04"
		}
	]
}