{
	"random": "34",
	"price": "100.714",
	"isReadyForSale": "false",
	"listedDate": "2022-08-13",
	"particulars": "Not For Sale",
	"name": "Elbertina",
	"cultivationCity": "Iloilo City",
	"cultivationCountry": "Lao People\"S Democratic Republic",
	"cultivationCountryCode": "PR",
	"companyEmail": "undefined@gmail.com",
	"manufacturingCountries": [
		"Nollie",
		"Jacquetta",
		"Kaia",
		"Ruthe",
		"Vanessa"
	],
	"salesDetails": [
		{
			"itemsSold": "0",
			"price": "76.267",
			"soldDate": "2022-02-16"
		},
		{
			"itemsSold": "1",
			"price": "33.726",
			"soldDate": "2022-06-22"
		},
		{
			"itemsSold": "2",
			"price": "26.612",
			"soldDate": "2022-03-03"
		}
	]
}