{
	"random": "69",
	"price": "58.082",
	"isReadyForSale": "false",
	"listedDate": "2022-08-05",
	"particulars": "DairyProduct",
	"name": "Donetta",
	"cultivationCity": "Lima",
	"cultivationCountry": "Cuba",
	"cultivationCountryCode": "BJ",
	"companyEmail": "undefined@gmail.com",
	"manufacturingCountries": [
		"Elfreda",
		"Danny",
		"Aili",
		"Rebeca",
		"Clarice"
	],
	"salesDetails": [
		{
			"itemsSold": "0",
			"price": "92.067",
			"soldDate": "2022-03-19"
		},
		{
			"itemsSold": "1",
			"price": "39.545",
			"soldDate": "2022-07-20"
		},
		{
			"itemsSold": "2",
			"price": "61.074",
			"soldDate": "2022-07-01"
		}
	]
}