{
	"random": "52",
	"price": "95.72",
	"isReadyForSale": "true",
	"listedDate": "2023-01-02",
	"particulars": "Artifically Flavoured",
	"name": "Brana",
	"cultivationCity": "Osaka",
	"cultivationCountry": "Tanzania, United Republic of",
	"cultivationCountryCode": "BE",
	"companyEmail": "undefined@gmail.com",
	"manufacturingCountries": [
		"Cherrita",
		"Modestia",
		"Kalina",
		"Judy",
		"Natka"
	],
	"salesDetails": [
		{
			"itemsSold": "0",
			"price": "96.061",
			"soldDate": "2023-01-03"
		},
		{
			"itemsSold": "1",
			"price": "58.084",
			"soldDate": "2022-11-20"
		},
		{
			"itemsSold": "2",
			"price": "47.117",
			"soldDate": "2022-03-15"
		}
	]
}