{
	"random": "58",
	"price": "97.346",
	"isReadyForSale": "false",
	"listedDate": "2022-06-11",
	"particulars": "Not For Sale",
	"name": "Cassandra",
	"cultivationCity": "Stanley",
	"cultivationCountry": "Nigeria",
	"cultivationCountryCode": "DM",
	"companyEmail": "undefined@gmail.com",
	"manufacturingCountries": [
		"Phylis",
		"Benita",
		"Yvonne",
		"Brietta",
		"Joelly"
	],
	"salesDetails": [
		{
			"itemsSold": "0",
			"price": "92.063",
			"soldDate": "2022-07-14"
		},
		{
			"itemsSold": "1",
			"price": "46.709",
			"soldDate": "2022-12-03"
		},
		{
			"itemsSold": "2",
			"price": "98.246",
			"soldDate": "2022-08-02"
		}
	]
}