{
	"random": "21",
	"price": "68.389",
	"isReadyForSale": "true",
	"listedDate": "2022-08-06",
	"particulars": "DairyProduct",
	"name": "Blondelle",
	"cultivationCity": "Boa Vista",
	"cultivationCountry": "Cook Islands",
	"cultivationCountryCode": "GW",
	"companyEmail": "undefined@gmail.com",
	"manufacturingCountries": [
		"Micheline",
		"Mathilda",
		"Maridel",
		"Ileana",
		"Teriann"
	],
	"salesDetails": [
		{
			"itemsSold": "0",
			"price": "97.782",
			"soldDate": "2022-10-04"
		},
		{
			"itemsSold": "1",
			"price": "8.426",
			"soldDate": "2022-07-13"
		},
		{
			"itemsSold": "2",
			"price": "62.341",
			"soldDate": "2022-02-14"
		}
	]
}