{
	"random": "27",
	"price": "84.137",
	"isReadyForSale": "false",
	"listedDate": "2022-03-31",
	"particulars": "Not For Sale",
	"name": "Aigneis",
	"cultivationCity": "St. Louis",
	"cultivationCountry": "Namibia",
	"cultivationCountryCode": "UM",
	"companyEmail": "undefined@gmail.com",
	"manufacturingCountries": [
		"Ellette",
		"Danika",
		"Babita",
		"Gusty",
		"Concettina"
	],
	"salesDetails": [
		{
			"itemsSold": "0",
			"price": "11.162",
			"soldDate": "2022-06-23"
		},
		{
			"itemsSold": "1",
			"price": "62.218",
			"soldDate": "2022-01-08"
		},
		{
			"itemsSold": "2",
			"price": "68.314",
			"soldDate": "2022-02-19"
		}
	]
}