{
	"random": "81",
	"price": "26.973",
	"isReadyForSale": "true",
	"listedDate": "2022-05-01",
	"particulars": "Not For Sale",
	"name": "Nickie",
	"cultivationCity": "Regina",
	"cultivationCountry": "Norfolk Island",
	"cultivationCountryCode": "HT",
	"companyEmail": "undefined@gmail.com",
	"manufacturingCountries": [
		"Laurene",
		"Ginnie",
		"Marguerite",
		"Dari",
		"Annabela"
	],
	"salesDetails": [
		{
			"itemsSold": "0",
			"price": "55.288",
			"soldDate": "2023-01-13"
		},
		{
			"itemsSold": "1",
			"price": "75.955",
			"soldDate": "2022-05-13"
		},
		{
			"itemsSold": "2",
			"price": "27.869",
			"soldDate": "2022-07-03"
		}
	]
}