{
	"random": "98",
	"price": "30.248",
	"isReadyForSale": "false",
	"listedDate": "2022-10-22",
	"particulars": "Not For Sale",
	"name": "Dione",
	"cultivationCity": "Charlotte",
	"cultivationCountry": "Palau",
	"cultivationCountryCode": "IR",
	"companyEmail": "undefined@gmail.com",
	"manufacturingCountries": [
		"Nananne",
		"Vonny",
		"Etta",
		"Binny",
		"Catharine"
	],
	"salesDetails": [
		{
			"itemsSold": "0",
			"price": "38.156",
			"soldDate": "2023-01-06"
		},
		{
			"itemsSold": "1",
			"price": "24.217",
			"soldDate": "2022-07-01"
		},
		{
			"itemsSold": "2",
			"price": "97.496",
			"soldDate": "2022-09-04"
		}
	]
}