{
	"random": "69",
	"price": "28.453",
	"isReadyForSale": "false",
	"listedDate": "2022-01-13",
	"particulars": "DairyProduct",
	"name": "Margarette",
	"cultivationCity": "Durango",
	"cultivationCountry": "Northern Mariana Islands",
	"cultivationCountryCode": "FO",
	"companyEmail": "undefined@gmail.com",
	"manufacturingCountries": [
		"Barbi",
		"Lynde",
		"Carol-Jean",
		"Kaia",
		"Fred"
	],
	"salesDetails": [
		{
			"itemsSold": "0",
			"price": "64.863",
			"soldDate": "2022-03-04"
		},
		{
			"itemsSold": "1",
			"price": "7.675",
			"soldDate": "2022-12-06"
		},
		{
			"itemsSold": "2",
			"price": "39.435",
			"soldDate": "2022-09-25"
		}
	]
}