{
	"random": "30",
	"price": "47.238",
	"isReadyForSale": "true",
	"listedDate": "2022-06-28",
	"particulars": "Not For Sale",
	"name": "Miquela",
	"cultivationCity": "İzmir",
	"cultivationCountry": "Indonesia",
	"cultivationCountryCode": "LS",
	"companyEmail": "undefined@gmail.com",
	"manufacturingCountries": [
		"Caressa",
		"Heddie",
		"Marjie",
		"Phylis",
		"Nerta"
	],
	"salesDetails": [
		{
			"itemsSold": "0",
			"price": "29.933",
			"soldDate": "2022-06-30"
		},
		{
			"itemsSold": "1",
			"price": "94.819",
			"soldDate": "2022-08-20"
		},
		{
			"itemsSold": "2",
			"price": "40.343",
			"soldDate": "2022-11-09"
		}
	]
}