{
	"random": "8",
	"price": "21.635",
	"isReadyForSale": "false",
	"listedDate": "2022-10-26",
	"particulars": "DairyProduct",
	"name": "Tierney",
	"cultivationCity": "Leipzig",
	"cultivationCountry": "Armenia",
	"cultivationCountryCode": "CF",
	"companyEmail": "undefined@gmail.com",
	"manufacturingCountries": [
		"Marcy",
		"Gerrie",
		"Peri",
		"Teddie",
		"Nickie"
	],
	"salesDetails": [
		{
			"itemsSold": "0",
			"price": "1.132",
			"soldDate": "2022-06-05"
		},
		{
			"itemsSold": "1",
			"price": "22.505",
			"soldDate": "2022-10-30"
		},
		{
			"itemsSold": "2",
			"price": "54.277",
			"soldDate": "2022-05-26"
		}
	]
}