{
	"random": "15",
	"price": "69.084",
	"isReadyForSale": "false",
	"listedDate": "2022-04-06",
	"particulars": "Artifically Flavoured",
	"name": "Annabela",
	"cultivationCity": "Rome",
	"cultivationCountry": "Finland",
	"cultivationCountryCode": "KG",
	"companyEmail": "undefined@gmail.com",
	"manufacturingCountries": [
		"Annabela",
		"Nannie",
		"Gilligan",
		"Etta",
		"Gabriellia"
	],
	"salesDetails": [
		{
			"itemsSold": "0",
			"price": "1.904",
			"soldDate": "2022-04-15"
		},
		{
			"itemsSold": "1",
			"price": "86.53",
			"soldDate": "2022-05-04"
		},
		{
			"itemsSold": "2",
			"price": "6.784",
			"soldDate": "2022-12-03"
		}
	]
}