{
	"random": "16",
	"price": "8.756",
	"isReadyForSale": "true",
	"listedDate": "2022-06-20",
	"particulars": "Not For Sale",
	"name": "Dennie",
	"cultivationCity": "Patna",
	"cultivationCountry": "Bangladesh",
	"cultivationCountryCode": "CL",
	"companyEmail": "undefined@gmail.com",
	"manufacturingCountries": [
		"Siana",
		"Jaclyn",
		"Katuscha",
		"Beth",
		"Di"
	],
	"salesDetails": [
		{
			"itemsSold": "0",
			"price": "98.847",
			"soldDate": "2022-05-05"
		},
		{
			"itemsSold": "1",
			"price": "49.782",
			"soldDate": "2022-10-20"
		},
		{
			"itemsSold": "2",
			"price": "89.808",
			"soldDate": "2022-10-27"
		}
	]
}