{
	"random": "41",
	"price": "87.751",
	"isReadyForSale": "true",
	"listedDate": "2022-08-27",
	"particulars": "Artifically Flavoured",
	"name": "Ariela",
	"cultivationCity": "Curitiba",
	"cultivationCountry": "New Caledonia",
	"cultivationCountryCode": "SY",
	"companyEmail": "undefined@gmail.com",
	"manufacturingCountries": [
		"Emma",
		"Clarice",
		"Steffane",
		"Orsola",
		"Dominga"
	],
	"salesDetails": [
		{
			"itemsSold": "0",
			"price": "31.717",
			"soldDate": "2022-06-21"
		},
		{
			"itemsSold": "1",
			"price": "44.531",
			"soldDate": "2022-08-27"
		},
		{
			"itemsSold": "2",
			"price": "57.614",
			"soldDate": "2022-01-17"
		}
	]
}