{
	"random": "48",
	"price": "89.48",
	"isReadyForSale": "false",
	"listedDate": "2022-06-18",
	"particulars": "Not For Sale",
	"name": "Susan",
	"cultivationCity": "Arequipa",
	"cultivationCountry": "Ireland",
	"cultivationCountryCode": "HR",
	"companyEmail": "undefined@gmail.com",
	"manufacturingCountries": [
		"Ericka",
		"Danny",
		"Rivalee",
		"Randa",
		"Lesly"
	],
	"salesDetails": [
		{
			"itemsSold": "0",
			"price": "36.635",
			"soldDate": "2023-01-12"
		},
		{
			"itemsSold": "1",
			"price": "3.226",
			"soldDate": "2022-11-12"
		},
		{
			"itemsSold": "2",
			"price": "57.48",
			"soldDate": "2022-07-14"
		}
	]
}