{
	"random": "2",
	"price": "48.698",
	"isReadyForSale": "false",
	"listedDate": "2022-10-30",
	"particulars": "Not For Sale",
	"name": "Shannah",
	"cultivationCity": "Yangon",
	"cultivationCountry": "Finland",
	"cultivationCountryCode": "PK",
	"companyEmail": "undefined@gmail.com",
	"manufacturingCountries": [
		"Celestyna",
		"Ardeen",
		"Calla",
		"Helena",
		"Renae"
	],
	"salesDetails": [
		{
			"itemsSold": "0",
			"price": "38.299",
			"soldDate": "2022-01-08"
		},
		{
			"itemsSold": "1",
			"price": "43.306",
			"soldDate": "2022-01-08"
		},
		{
			"itemsSold": "2",
			"price": "18.158",
			"soldDate": "2022-02-15"
		}
	]
}