{
	"random": "74",
	"price": "26.907",
	"isReadyForSale": "false",
	"listedDate": "2022-06-24",
	"particulars": "Not For Sale",
	"name": "Madalyn",
	"cultivationCity": "Recife",
	"cultivationCountry": "Netherlands",
	"cultivationCountryCode": "CC",
	"companyEmail": "undefined@gmail.com",
	"manufacturingCountries": [
		"Candy",
		"Candi",
		"Mildrid",
		"Keelia",
		"Vanessa"
	],
	"salesDetails": [
		{
			"itemsSold": "0",
			"price": "16.328",
			"soldDate": "2022-11-25"
		},
		{
			"itemsSold": "1",
			"price": "4.027",
			"soldDate": "2022-05-24"
		},
		{
			"itemsSold": "2",
			"price": "95.513",
			"soldDate": "2022-05-13"
		}
	]
}