{
	"random": "67",
	"price": "84.05",
	"isReadyForSale": "false",
	"listedDate": "2022-10-31",
	"particulars": "Not For Sale",
	"name": "Violet",
	"cultivationCity": "Belém",
	"cultivationCountry": "El Salvador",
	"cultivationCountryCode": "PW",
	"companyEmail": "undefined@gmail.com",
	"manufacturingCountries": [
		"Mellicent",
		"Kirstin",
		"Farrah",
		"Goldie",
		"Starla"
	],
	"salesDetails": [
		{
			"itemsSold": "0",
			"price": "35.991",
			"soldDate": "2022-07-09"
		},
		{
			"itemsSold": "1",
			"price": "12.897",
			"soldDate": "2022-02-10"
		},
		{
			"itemsSold": "2",
			"price": "57.56",
			"soldDate": "2022-09-12"
		}
	]
}