{
	"random": "87",
	"price": "15.835",
	"isReadyForSale": "true",
	"listedDate": "2022-04-01",
	"particulars": "DairyProduct",
	"name": "Ronna",
	"cultivationCity": "Guayaquil",
	"cultivationCountry": "Czech Republic",
	"cultivationCountryCode": "LS",
	"companyEmail": "undefined@gmail.com",
	"manufacturingCountries": [
		"Linet",
		"Janey",
		"Bibby",
		"Ardys",
		"Myriam"
	],
	"salesDetails": [
		{
			"itemsSold": "0",
			"price": "87.559",
			"soldDate": "2022-09-01"
		},
		{
			"itemsSold": "1",
			"price": "73.711",
			"soldDate": "2022-07-18"
		},
		{
			"itemsSold": "2",
			"price": "15.05",
			"soldDate": "2022-05-31"
		}
	]
}