{
	"random": "44",
	"price": "1.884",
	"isReadyForSale": "false",
	"listedDate": "2022-10-29",
	"particulars": "Not For Sale",
	"name": "Noelle",
	"cultivationCity": "Charlotte Amalie",
	"cultivationCountry": "Kenya",
	"cultivationCountryCode": "HU",
	"companyEmail": "undefined@gmail.com",
	"manufacturingCountries": [
		"Drucie",
		"Stacey",
		"Moyna",
		"Jessamyn",
		"Camile"
	],
	"salesDetails": [
		{
			"itemsSold": "0",
			"price": "88.674",
			"soldDate": "2022-04-05"
		},
		{
			"itemsSold": "1",
			"price": "32.631",
			"soldDate": "2022-08-29"
		},
		{
			"itemsSold": "2",
			"price": "4.608",
			"soldDate": "2022-06-07"
		}
	]
}