{
	"random": "51",
	"price": "23.83",
	"isReadyForSale": "true",
	"listedDate": "2022-11-24",
	"particulars": "DairyProduct",
	"name": "Gaylene",
	"cultivationCity": "Tripoli",
	"cultivationCountry": "Guam",
	"cultivationCountryCode": "EC",
	"companyEmail": "undefined@gmail.com",
	"manufacturingCountries": [
		"Marcy",
		"Lynea",
		"Tilly",
		"Elise",
		"Fanny"
	],
	"salesDetails": [
		{
			"itemsSold": "0",
			"price": "16.96",
			"soldDate": "2022-06-22"
		},
		{
			"itemsSold": "1",
			"price": "97.699",
			"soldDate": "2022-12-15"
		},
		{
			"itemsSold": "2",
			"price": "47.58",
			"soldDate": "2022-05-27"
		}
	]
}