{
	"random": "23",
	"price": "79.656",
	"isReadyForSale": "false",
	"listedDate": "2022-11-11",
	"particulars": "Not For Sale",
	"name": "Cathyleen",
	"cultivationCity": "Fredericton",
	"cultivationCountry": "Oman",
	"cultivationCountryCode": "BO",
	"companyEmail": "undefined@gmail.com",
	"manufacturingCountries": [
		"Merci",
		"Lelah",
		"Bettine",
		"Livvyy",
		"Arlena"
	],
	"salesDetails": [
		{
			"itemsSold": "0",
			"price": "67.44",
			"soldDate": "2022-10-20"
		},
		{
			"itemsSold": "1",
			"price": "98.32",
			"soldDate": "2022-11-01"
		},
		{
			"itemsSold": "2",
			"price": "6.615",
			"soldDate": "2022-04-16"
		}
	]
}