{
	"random": "68",
	"price": "55.097",
	"isReadyForSale": "false",
	"listedDate": "2022-01-20",
	"particulars": "DairyProduct",
	"name": "Petronia",
	"cultivationCity": "Sukhumi",
	"cultivationCountry": "Uruguay",
	"cultivationCountryCode": "TK",
	"companyEmail": "undefined@gmail.com",
	"manufacturingCountries": [
		"Cassondra",
		"Clarice",
		"Jessamyn",
		"Nelle",
		"Karolina"
	],
	"salesDetails": [
		{
			"itemsSold": "0",
			"price": "18.403",
			"soldDate": "2022-06-24"
		},
		{
			"itemsSold": "1",
			"price": "5.631",
			"soldDate": "2022-02-11"
		},
		{
			"itemsSold": "2",
			"price": "70.269",
			"soldDate": "2022-04-26"
		}
	]
}