{
	"random": "69",
	"price": "71.42",
	"isReadyForSale": "false",
	"listedDate": "2022-06-10",
	"particulars": "Not For Sale",
	"name": "Abbie",
	"cultivationCity": "Seattle",
	"cultivationCountry": "Gabon",
	"cultivationCountryCode": "BF",
	"companyEmail": "undefined@gmail.com",
	"manufacturingCountries": [
		"Cam",
		"Elsie",
		"Olivette",
		"Raina",
		"Annecorinne"
	],
	"salesDetails": [
		{
			"itemsSold": "0",
			"price": "81.877",
			"soldDate": "2022-08-24"
		},
		{
			"itemsSold": "1",
			"price": "96.132",
			"soldDate": "2022-11-30"
		},
		{
			"itemsSold": "2",
			"price": "28.148",
			"soldDate": "2022-11-22"
		}
	]
}