{
	"random": "59",
	"price": "81.653",
	"isReadyForSale": "true",
	"listedDate": "2022-01-24",
	"particulars": "DairyProduct",
	"name": "Maryellen",
	"cultivationCity": "Cardiff",
	"cultivationCountry": "Netherlands Antilles",
	"cultivationCountryCode": "BD",
	"companyEmail": "undefined@gmail.com",
	"manufacturingCountries": [
		"Gianina",
		"Katuscha",
		"Meg",
		"Angela",
		"Miquela"
	],
	"salesDetails": [
		{
			"itemsSold": "0",
			"price": "35.725",
			"soldDate": "2022-01-13"
		},
		{
			"itemsSold": "1",
			"price": "62.489",
			"soldDate": "2022-08-16"
		},
		{
			"itemsSold": "2",
			"price": "4.527",
			"soldDate": "2022-11-28"
		}
	]
}