{
	"random": "48",
	"price": "10.518",
	"isReadyForSale": "true",
	"listedDate": "2022-09-24",
	"particulars": "DairyProduct",
	"name": "Violet",
	"cultivationCity": "Mogadishu",
	"cultivationCountry": "Armenia",
	"cultivationCountryCode": "LT",
	"companyEmail": "undefined@gmail.com",
	"manufacturingCountries": [
		"Nickie",
		"Nananne",
		"Brana",
		"Danika",
		"Genovera"
	],
	"salesDetails": [
		{
			"itemsSold": "0",
			"price": "28.646",
			"soldDate": "2022-12-20"
		},
		{
			"itemsSold": "1",
			"price": "48.797",
			"soldDate": "2022-04-26"
		},
		{
			"itemsSold": "2",
			"price": "48.189",
			"soldDate": "2023-01-13"
		}
	]
}