{
	"random": "90",
	"price": "24.214",
	"isReadyForSale": "true",
	"listedDate": "2022-10-11",
	"particulars": "Not For Sale",
	"name": "Caritta",
	"cultivationCity": "Tiraspol",
	"cultivationCountry": "Uzbekistan",
	"cultivationCountryCode": "KM",
	"companyEmail": "undefined@gmail.com",
	"manufacturingCountries": [
		"Lilith",
		"Leia",
		"Gwenneth",
		"Melisent",
		"Ana"
	],
	"salesDetails": [
		{
			"itemsSold": "0",
			"price": "67.737",
			"soldDate": "2022-04-15"
		},
		{
			"itemsSold": "1",
			"price": "47.143",
			"soldDate": "2022-08-26"
		},
		{
			"itemsSold": "2",
			"price": "67.029",
			"soldDate": "2022-06-27"
		}
	]
}