{
	"random": "61",
	"price": "49.581",
	"isReadyForSale": "false",
	"listedDate": "2022-08-10",
	"particulars": "Not For Sale",
	"name": "Roslyn",
	"cultivationCity": "Brussels",
	"cultivationCountry": "Mayotte",
	"cultivationCountryCode": "BE",
	"companyEmail": "undefined@gmail.com",
	"manufacturingCountries": [
		"Jessy",
		"Angela",
		"Janey",
		"Aili",
		"Brianna"
	],
	"salesDetails": [
		{
			"itemsSold": "0",
			"price": "88.889",
			"soldDate": "2022-01-01"
		},
		{
			"itemsSold": "1",
			"price": "11.949",
			"soldDate": "2022-03-12"
		},
		{
			"itemsSold": "2",
			"price": "90.098",
			"soldDate": "2022-06-18"
		}
	]
}