{
	"random": "17",
	"price": "37.933",
	"isReadyForSale": "false",
	"listedDate": "2022-12-04",
	"particulars": "Artifically Flavoured",
	"name": "Henriette",
	"cultivationCity": "Dammam",
	"cultivationCountry": "Viet Nam",
	"cultivationCountryCode": "PK",
	"companyEmail": "undefined@gmail.com",
	"manufacturingCountries": [
		"Sue",
		"Cissiee",
		"Therine",
		"Babita",
		"Sashenka"
	],
	"salesDetails": [
		{
			"itemsSold": "0",
			"price": "71.55",
			"soldDate": "2022-11-09"
		},
		{
			"itemsSold": "1",
			"price": "34.208",
			"soldDate": "2022-01-21"
		},
		{
			"itemsSold": "2",
			"price": "34.408",
			"soldDate": "2022-09-09"
		}
	]
}