{
	"random": "8",
	"price": "47.914",
	"isReadyForSale": "false",
	"listedDate": "2022-10-20",
	"particulars": "DairyProduct",
	"name": "Adele",
	"cultivationCity": "Riga",
	"cultivationCountry": "United Arab Emirates",
	"cultivationCountryCode": "CN",
	"companyEmail": "undefined@gmail.com",
	"manufacturingCountries": [
		"Aurelie",
		"Carmencita",
		"Kathy",
		"Juliane",
		"Sheelagh"
	],
	"salesDetails": [
		{
			"itemsSold": "0",
			"price": "61.284",
			"soldDate": "2022-08-04"
		},
		{
			"itemsSold": "1",
			"price": "90.432",
			"soldDate": "2022-05-11"
		},
		{
			"itemsSold": "2",
			"price": "8.734",
			"soldDate": "2022-04-26"
		}
	]
}