{
	"random": "35",
	"price": "15.802",
	"isReadyForSale": "false",
	"listedDate": "2022-11-30",
	"particulars": "Not For Sale",
	"name": "Vinita",
	"cultivationCity": "Málaga",
	"cultivationCountry": "Ecuador",
	"cultivationCountryCode": "RE",
	"companyEmail": "undefined@gmail.com",
	"manufacturingCountries": [
		"Nadine",
		"Donnie",
		"Cristine",
		"Elvira",
		"Babita"
	],
	"salesDetails": [
		{
			"itemsSold": "0",
			"price": "62.809",
			"soldDate": "2022-01-27"
		},
		{
			"itemsSold": "1",
			"price": "20.576",
			"soldDate": "2022-10-04"
		},
		{
			"itemsSold": "2",
			"price": "91.432",
			"soldDate": "2022-03-14"
		}
	]
}