{
	"random": "71",
	"price": "8.918",
	"isReadyForSale": "false",
	"listedDate": "2022-06-12",
	"particulars": "DairyProduct",
	"name": "Laurene",
	"cultivationCity": "Honolulu",
	"cultivationCountry": "Sudan",
	"cultivationCountryCode": "KI",
	"companyEmail": "undefined@gmail.com",
	"manufacturingCountries": [
		"Barbara",
		"Margarette",
		"Elmira",
		"Brana",
		"Pollyanna"
	],
	"salesDetails": [
		{
			"itemsSold": "0",
			"price": "92.66",
			"soldDate": "2022-02-25"
		},
		{
			"itemsSold": "1",
			"price": "82.967",
			"soldDate": "2022-08-01"
		},
		{
			"itemsSold": "2",
			"price": "27.307",
			"soldDate": "2022-05-21"
		}
	]
}