{
	"random": "85",
	"price": "13.87",
	"isReadyForSale": "true",
	"listedDate": "2022-03-12",
	"particulars": "Artifically Flavoured",
	"name": "Loree",
	"cultivationCity": "Jeddah",
	"cultivationCountry": "Latvia",
	"cultivationCountryCode": "TD",
	"companyEmail": "undefined@gmail.com",
	"manufacturingCountries": [
		"Roseline",
		"Dorthy",
		"Beverley",
		"Mellicent",
		"Yetty"
	],
	"salesDetails": [
		{
			"itemsSold": "0",
			"price": "51.91",
			"soldDate": "2022-03-26"
		},
		{
			"itemsSold": "1",
			"price": "66.971",
			"soldDate": "2022-05-10"
		},
		{
			"itemsSold": "2",
			"price": "15.46",
			"soldDate": "2023-01-10"
		}
	]
}