{
	"random": "81",
	"price": "62.178",
	"isReadyForSale": "false",
	"listedDate": "2022-12-23",
	"particulars": "Artifically Flavoured",
	"name": "Melodie",
	"cultivationCity": "Chittagong",
	"cultivationCountry": "Equatorial Guinea",
	"cultivationCountryCode": "MP",
	"companyEmail": "undefined@gmail.com",
	"manufacturingCountries": [
		"Nananne",
		"Helena",
		"Dianemarie",
		"Betta",
		"Layla"
	],
	"salesDetails": [
		{
			"itemsSold": "0",
			"price": "50.777",
			"soldDate": "2022-06-28"
		},
		{
			"itemsSold": "1",
			"price": "49.898",
			"soldDate": "2022-01-22"
		},
		{
			"itemsSold": "2",
			"price": "30.148",
			"soldDate": "2022-07-14"
		}
	]
}