{
	"random": "17",
	"price": "3.037",
	"isReadyForSale": "true",
	"listedDate": "2022-02-05",
	"particulars": "Not For Sale",
	"name": "Emilia",
	"cultivationCity": "Banda Aceh",
	"cultivationCountry": "Trinidad and Tobago",
	"cultivationCountryCode": "HK",
	"companyEmail": "undefined@gmail.com",
	"manufacturingCountries": [
		"Lucille",
		"Mireielle",
		"Ricky",
		"Rosanne",
		"Merci"
	],
	"salesDetails": [
		{
			"itemsSold": "0",
			"price": "96.232",
			"soldDate": "2022-03-02"
		},
		{
			"itemsSold": "1",
			"price": "49.958",
			"soldDate": "2022-04-30"
		},
		{
			"itemsSold": "2",
			"price": "21.02",
			"soldDate": "2022-03-05"
		}
	]
}