{
	"random": "46",
	"price": "84.391",
	"isReadyForSale": "true",
	"listedDate": "2022-03-02",
	"particulars": "DairyProduct",
	"name": "Taffy",
	"cultivationCity": "Alor Star",
	"cultivationCountry": "Botswana",
	"cultivationCountryCode": "VI",
	"companyEmail": "undefined@gmail.com",
	"manufacturingCountries": [
		"Hallie",
		"Mariele",
		"Ottilie",
		"Lynea",
		"Romona"
	],
	"salesDetails": [
		{
			"itemsSold": "0",
			"price": "4.751",
			"soldDate": "2022-10-23"
		},
		{
			"itemsSold": "1",
			"price": "88.711",
			"soldDate": "2022-11-21"
		},
		{
			"itemsSold": "2",
			"price": "71.984",
			"soldDate": "2022-11-19"
		}
	]
}