{
	"random": "57",
	"price": "17.128",
	"isReadyForSale": "false",
	"listedDate": "2022-01-16",
	"particulars": "Artifically Flavoured",
	"name": "Alia",
	"cultivationCity": "Namangan",
	"cultivationCountry": "Estonia",
	"cultivationCountryCode": "PN",
	"companyEmail": "undefined@gmail.com",
	"manufacturingCountries": [
		"Jennica",
		"Delilah",
		"Carolina",
		"Marnia",
		"Nicoli"
	],
	"salesDetails": [
		{
			"itemsSold": "0",
			"price": "64.954",
			"soldDate": "2022-11-09"
		},
		{
			"itemsSold": "1",
			"price": "91.241",
			"soldDate": "2022-04-27"
		},
		{
			"itemsSold": "2",
			"price": "62.501",
			"soldDate": "2022-12-27"
		}
	]
}