{
	"random": "97",
	"price": "45.468",
	"isReadyForSale": "true",
	"listedDate": "2022-12-19",
	"particulars": "Not For Sale",
	"name": "Benita",
	"cultivationCity": "Longyearbyen",
	"cultivationCountry": "Israel",
	"cultivationCountryCode": "CI",
	"companyEmail": "undefined@gmail.com",
	"manufacturingCountries": [
		"Corry",
		"Estell",
		"Deane",
		"Madalyn",
		"Gisela"
	],
	"salesDetails": [
		{
			"itemsSold": "0",
			"price": "32.602",
			"soldDate": "2022-03-17"
		},
		{
			"itemsSold": "1",
			"price": "82.719",
			"soldDate": "2022-01-24"
		},
		{
			"itemsSold": "2",
			"price": "5.974",
			"soldDate": "2022-02-20"
		}
	]
}