{
	"random": "39",
	"price": "25.053",
	"isReadyForSale": "false",
	"listedDate": "2022-01-03",
	"particulars": "Artifically Flavoured",
	"name": "Tami",
	"cultivationCity": "Rome",
	"cultivationCountry": "Virgin Islands, U.S.",
	"cultivationCountryCode": "NI",
	"companyEmail": "undefined@gmail.com",
	"manufacturingCountries": [
		"Renae",
		"Blake",
		"Deirdre",
		"Orelia",
		"Aigneis"
	],
	"salesDetails": [
		{
			"itemsSold": "0",
			"price": "57.783",
			"soldDate": "2022-10-27"
		},
		{
			"itemsSold": "1",
			"price": "93.257",
			"soldDate": "2022-07-17"
		},
		{
			"itemsSold": "2",
			"price": "98.331",
			"soldDate": "2022-07-07"
		}
	]
}