{
	"random": "38",
	"price": "65.309",
	"isReadyForSale": "true",
	"listedDate": "2022-08-24",
	"particulars": "Not For Sale",
	"name": "Shel",
	"cultivationCity": "Bandar Seri Begawan",
	"cultivationCountry": "Tajikistan",
	"cultivationCountryCode": "MR",
	"companyEmail": "undefined@gmail.com",
	"manufacturingCountries": [
		"Marika",
		"Deedee",
		"Melina",
		"Dulce",
		"Zia"
	],
	"salesDetails": [
		{
			"itemsSold": "0",
			"price": "40.223",
			"soldDate": "2022-01-07"
		},
		{
			"itemsSold": "1",
			"price": "74.097",
			"soldDate": "2022-11-19"
		},
		{
			"itemsSold": "2",
			"price": "6.242",
			"soldDate": "2022-04-08"
		}
	]
}