{
	"random": "78",
	"price": "49.378",
	"isReadyForSale": "true",
	"listedDate": "2022-04-27",
	"particulars": "Artifically Flavoured",
	"name": "Oona",
	"cultivationCity": "New Orleans",
	"cultivationCountry": "Macedonia, The Former Yugoslav Republic of",
	"cultivationCountryCode": "NL",
	"companyEmail": "undefined@gmail.com",
	"manufacturingCountries": [
		"Rochette",
		"Georgetta",
		"Rayna",
		"Trudie",
		"Taffy"
	],
	"salesDetails": [
		{
			"itemsSold": "0",
			"price": "1.722",
			"soldDate": "2022-10-08"
		},
		{
			"itemsSold": "1",
			"price": "66.601",
			"soldDate": "2022-04-15"
		},
		{
			"itemsSold": "2",
			"price": "42.719",
			"soldDate": "2022-08-04"
		}
	]
}