{
	"random": "19",
	"price": "7.269",
	"isReadyForSale": "true",
	"listedDate": "2022-02-01",
	"particulars": "DairyProduct",
	"name": "Lauryn",
	"cultivationCity": "Konya",
	"cultivationCountry": "Qatar",
	"cultivationCountryCode": "BM",
	"companyEmail": "undefined@gmail.com",
	"manufacturingCountries": [
		"Gaylene",
		"Justinn",
		"Fayre",
		"Gerianna",
		"Ashlee"
	],
	"salesDetails": [
		{
			"itemsSold": "0",
			"price": "4.802",
			"soldDate": "2022-07-10"
		},
		{
			"itemsSold": "1",
			"price": "95.14",
			"soldDate": "2022-08-02"
		},
		{
			"itemsSold": "2",
			"price": "41.584",
			"soldDate": "2022-12-21"
		}
	]
}