{
	"random": "26",
	"price": "35.366",
	"isReadyForSale": "false",
	"listedDate": "2022-05-25",
	"particulars": "DairyProduct",
	"name": "Dominga",
	"cultivationCity": "Okinawa",
	"cultivationCountry": "Pakistan",
	"cultivationCountryCode": "AT",
	"companyEmail": "undefined@gmail.com",
	"manufacturingCountries": [
		"Calla",
		"Petronia",
		"Jaclyn",
		"Ellette",
		"Nariko"
	],
	"salesDetails": [
		{
			"itemsSold": "0",
			"price": "69.804",
			"soldDate": "2022-01-15"
		},
		{
			"itemsSold": "1",
			"price": "46.931",
			"soldDate": "2022-09-23"
		},
		{
			"itemsSold": "2",
			"price": "30.755",
			"soldDate": "2022-11-30"
		}
	]
}