{
	"random": "39",
	"price": "22.665",
	"isReadyForSale": "true",
	"listedDate": "2022-06-01",
	"particulars": "Not For Sale",
	"name": "Bibby",
	"cultivationCity": "Tel Aviv",
	"cultivationCountry": "Chile",
	"cultivationCountryCode": "FI",
	"companyEmail": "undefined@gmail.com",
	"manufacturingCountries": [
		"Minne",
		"Dacia",
		"Almeta",
		"Nicoli",
		"Leanna"
	],
	"salesDetails": [
		{
			"itemsSold": "0",
			"price": "47.544",
			"soldDate": "2022-07-01"
		},
		{
			"itemsSold": "1",
			"price": "100.913",
			"soldDate": "2022-03-19"
		},
		{
			"itemsSold": "2",
			"price": "25.927",
			"soldDate": "2022-09-10"
		}
	]
}