{
	"random": "35",
	"price": "16.72",
	"isReadyForSale": "false",
	"listedDate": "2022-11-15",
	"particulars": "Not For Sale",
	"name": "Lanna",
	"cultivationCity": "Phnom Penh",
	"cultivationCountry": "Antigua and Barbuda",
	"cultivationCountryCode": "CK",
	"companyEmail": "undefined@gmail.com",
	"manufacturingCountries": [
		"Marsiella",
		"Rebeca",
		"Gianina",
		"Amelia",
		"Sabina"
	],
	"salesDetails": [
		{
			"itemsSold": "0",
			"price": "66.427",
			"soldDate": "2022-01-09"
		},
		{
			"itemsSold": "1",
			"price": "100.3",
			"soldDate": "2022-12-19"
		},
		{
			"itemsSold": "2",
			"price": "2.139",
			"soldDate": "2022-10-13"
		}
	]
}