{
	"random": "84",
	"price": "5.39",
	"isReadyForSale": "true",
	"listedDate": "2022-01-04",
	"particulars": "Artifically Flavoured",
	"name": "Phedra",
	"cultivationCity": "Harare",
	"cultivationCountry": "Greece",
	"cultivationCountryCode": "TC",
	"companyEmail": "undefined@gmail.com",
	"manufacturingCountries": [
		"Jany",
		"Gusty",
		"Marline",
		"Bertine",
		"Babita"
	],
	"salesDetails": [
		{
			"itemsSold": "0",
			"price": "8.792",
			"soldDate": "2022-07-22"
		},
		{
			"itemsSold": "1",
			"price": "8.852",
			"soldDate": "2022-12-11"
		},
		{
			"itemsSold": "2",
			"price": "49.231",
			"soldDate": "2022-02-15"
		}
	]
}