{
	"random": "48",
	"price": "70.274",
	"isReadyForSale": "false",
	"listedDate": "2022-12-20",
	"particulars": "Not For Sale",
	"name": "Gratia",
	"cultivationCity": "Lviv",
	"cultivationCountry": "Lao People\"S Democratic Republic",
	"cultivationCountryCode": "KG",
	"companyEmail": "undefined@gmail.com",
	"manufacturingCountries": [
		"Kary",
		"Kellen",
		"Chrystel",
		"Sibella",
		"Raf"
	],
	"salesDetails": [
		{
			"itemsSold": "0",
			"price": "85.988",
			"soldDate": "2022-04-11"
		},
		{
			"itemsSold": "1",
			"price": "1.958",
			"soldDate": "2022-11-04"
		},
		{
			"itemsSold": "2",
			"price": "48.707",
			"soldDate": "2022-07-25"
		}
	]
}