{
	"random": "18",
	"price": "78.336",
	"isReadyForSale": "false",
	"listedDate": "2022-05-01",
	"particulars": "DairyProduct",
	"name": "Edee",
	"cultivationCity": "Liverpool",
	"cultivationCountry": "Norway",
	"cultivationCountryCode": "KR",
	"companyEmail": "undefined@gmail.com",
	"manufacturingCountries": [
		"Goldie",
		"Bertine",
		"Hannis",
		"Jsandye",
		"Yetty"
	],
	"salesDetails": [
		{
			"itemsSold": "0",
			"price": "95.098",
			"soldDate": "2022-04-01"
		},
		{
			"itemsSold": "1",
			"price": "59.78",
			"soldDate": "2022-06-28"
		},
		{
			"itemsSold": "2",
			"price": "8.644",
			"soldDate": "2022-03-21"
		}
	]
}