{
	"random": "25",
	"price": "58.762",
	"isReadyForSale": "true",
	"listedDate": "2023-01-03",
	"particulars": "Not For Sale",
	"name": "Roseline",
	"cultivationCity": "Lisbon",
	"cultivationCountry": "Syrian Arab Republic",
	"cultivationCountryCode": "KR",
	"companyEmail": "undefined@gmail.com",
	"manufacturingCountries": [
		"Angelique",
		"Doralynne",
		"Bibby",
		"Kalina",
		"Nananne"
	],
	"salesDetails": [
		{
			"itemsSold": "0",
			"price": "81.433",
			"soldDate": "2022-05-23"
		},
		{
			"itemsSold": "1",
			"price": "59.746",
			"soldDate": "2023-01-11"
		},
		{
			"itemsSold": "2",
			"price": "35.042",
			"soldDate": "2022-06-01"
		}
	]
}