{
	"random": "79",
	"price": "89.112",
	"isReadyForSale": "true",
	"listedDate": "2022-08-22",
	"particulars": "Artifically Flavoured",
	"name": "Margarette",
	"cultivationCity": "El Paso",
	"cultivationCountry": "Namibia",
	"cultivationCountryCode": "CU",
	"companyEmail": "undefined@gmail.com",
	"manufacturingCountries": [
		"Madelle",
		"Sallie",
		"Blinni",
		"Elora",
		"Carree"
	],
	"salesDetails": [
		{
			"itemsSold": "0",
			"price": "70.348",
			"soldDate": "2023-01-09"
		},
		{
			"itemsSold": "1",
			"price": "6.977",
			"soldDate": "2022-11-30"
		},
		{
			"itemsSold": "2",
			"price": "96.572",
			"soldDate": "2022-08-09"
		}
	]
}