{
	"random": "65",
	"price": "61.644",
	"isReadyForSale": "true",
	"listedDate": "2022-09-25",
	"particulars": "Artifically Flavoured",
	"name": "Damaris",
	"cultivationCity": "Mamoudzou",
	"cultivationCountry": "Poland",
	"cultivationCountryCode": "LY",
	"companyEmail": "undefined@gmail.com",
	"manufacturingCountries": [
		"Tersina",
		"Rebeca",
		"Zondra",
		"Angela",
		"Bobinette"
	],
	"salesDetails": [
		{
			"itemsSold": "0",
			"price": "59.911",
			"soldDate": "2022-11-24"
		},
		{
			"itemsSold": "1",
			"price": "91.243",
			"soldDate": "2022-07-12"
		},
		{
			"itemsSold": "2",
			"price": "16.991",
			"soldDate": "2022-07-03"
		}
	]
}