{
	"random": "65",
	"price": "55.76",
	"isReadyForSale": "false",
	"listedDate": "2022-08-04",
	"particulars": "Artifically Flavoured",
	"name": "Wendi",
	"cultivationCity": "Anchorage",
	"cultivationCountry": "Madagascar",
	"cultivationCountryCode": "CH",
	"companyEmail": "undefined@gmail.com",
	"manufacturingCountries": [
		"Ottilie",
		"Norine",
		"Corry",
		"Jorry",
		"Pollyanna"
	],
	"salesDetails": [
		{
			"itemsSold": "0",
			"price": "20.754",
			"soldDate": "2022-11-17"
		},
		{
			"itemsSold": "1",
			"price": "57.051",
			"soldDate": "2022-10-28"
		},
		{
			"itemsSold": "2",
			"price": "21.17",
			"soldDate": "2022-05-03"
		}
	]
}