{
	"random": "71",
	"price": "79.322",
	"isReadyForSale": "false",
	"listedDate": "2023-01-08",
	"particulars": "Artifically Flavoured",
	"name": "Renie",
	"cultivationCity": "Dededo",
	"cultivationCountry": "Northern Mariana Islands",
	"cultivationCountryCode": "TR",
	"companyEmail": "undefined@gmail.com",
	"manufacturingCountries": [
		"Kayla",
		"Cordi",
		"Elvira",
		"Neila",
		"Chrystel"
	],
	"salesDetails": [
		{
			"itemsSold": "0",
			"price": "62.717",
			"soldDate": "2022-03-03"
		},
		{
			"itemsSold": "1",
			"price": "6.831",
			"soldDate": "2022-09-29"
		},
		{
			"itemsSold": "2",
			"price": "96.604",
			"soldDate": "2022-01-16"
		}
	]
}