{
	"random": "7",
	"price": "37.355",
	"isReadyForSale": "false",
	"listedDate": "2022-04-30",
	"particulars": "Not For Sale",
	"name": "Bee",
	"cultivationCity": "Mexicali",
	"cultivationCountry": "Saint Kitts and Nevis",
	"cultivationCountryCode": "CG",
	"companyEmail": "undefined@gmail.com",
	"manufacturingCountries": [
		"Thalia",
		"Brana",
		"Maryellen",
		"Elora",
		"Madeleine"
	],
	"salesDetails": [
		{
			"itemsSold": "0",
			"price": "55.783",
			"soldDate": "2022-09-03"
		},
		{
			"itemsSold": "1",
			"price": "28.65",
			"soldDate": "2022-09-29"
		},
		{
			"itemsSold": "2",
			"price": "17.86",
			"soldDate": "2022-01-06"
		}
	]
}