{
	"random": "50",
	"price": "9.071",
	"isReadyForSale": "true",
	"listedDate": "2022-11-13",
	"particulars": "Not For Sale",
	"name": "Corina",
	"cultivationCity": "Pekanbaru",
	"cultivationCountry": "Gibraltar",
	"cultivationCountryCode": "GQ",
	"companyEmail": "undefined@gmail.com",
	"manufacturingCountries": [
		"Fina",
		"Mureil",
		"Roseline",
		"Melodie",
		"Florie"
	],
	"salesDetails": [
		{
			"itemsSold": "0",
			"price": "63.15",
			"soldDate": "2022-05-11"
		},
		{
			"itemsSold": "1",
			"price": "96.04",
			"soldDate": "2022-06-28"
		},
		{
			"itemsSold": "2",
			"price": "52.886",
			"soldDate": "2022-05-23"
		}
	]
}