{
	"random": "68",
	"price": "70.361",
	"isReadyForSale": "false",
	"listedDate": "2022-05-14",
	"particulars": "Not For Sale",
	"name": "Sabina",
	"cultivationCity": "Cotonou",
	"cultivationCountry": "Greenland",
	"cultivationCountryCode": "AN",
	"companyEmail": "undefined@gmail.com",
	"manufacturingCountries": [
		"Kellen",
		"Darlleen",
		"Silvana",
		"Nannie",
		"Ana"
	],
	"salesDetails": [
		{
			"itemsSold": "0",
			"price": "93.748",
			"soldDate": "2022-03-08"
		},
		{
			"itemsSold": "1",
			"price": "39.468",
			"soldDate": "2023-01-10"
		},
		{
			"itemsSold": "2",
			"price": "67.146",
			"soldDate": "2022-01-26"
		}
	]
}