{
	"random": "13",
	"price": "46.304",
	"isReadyForSale": "false",
	"listedDate": "2022-06-15",
	"particulars": "Artifically Flavoured",
	"name": "Elsie",
	"cultivationCity": "Port Said",
	"cultivationCountry": "Thailand",
	"cultivationCountryCode": "UM",
	"companyEmail": "undefined@gmail.com",
	"manufacturingCountries": [
		"Collen",
		"Aeriela",
		"Vanessa",
		"Beatriz",
		"Cacilie"
	],
	"salesDetails": [
		{
			"itemsSold": "0",
			"price": "58.371",
			"soldDate": "2022-05-01"
		},
		{
			"itemsSold": "1",
			"price": "17.829",
			"soldDate": "2022-01-25"
		},
		{
			"itemsSold": "2",
			"price": "74.664",
			"soldDate": "2022-09-26"
		}
	]
}