{
	"random": "14",
	"price": "76.123",
	"isReadyForSale": "false",
	"listedDate": "2022-11-21",
	"particulars": "Not For Sale",
	"name": "Alyssa",
	"cultivationCity": "Kaliningrad",
	"cultivationCountry": "Uruguay",
	"cultivationCountryCode": "DJ",
	"companyEmail": "undefined@gmail.com",
	"manufacturingCountries": [
		"Tobe",
		"Fernande",
		"Penelopa",
		"Lynde",
		"Bee"
	],
	"salesDetails": [
		{
			"itemsSold": "0",
			"price": "95.352",
			"soldDate": "2022-07-27"
		},
		{
			"itemsSold": "1",
			"price": "96.099",
			"soldDate": "2023-01-04"
		},
		{
			"itemsSold": "2",
			"price": "62.235",
			"soldDate": "2022-11-25"
		}
	]
}