{
	"random": "39",
	"price": "11.419",
	"isReadyForSale": "true",
	"listedDate": "2022-07-06",
	"particulars": "DairyProduct",
	"name": "Janey",
	"cultivationCity": "Charlottetown",
	"cultivationCountry": "Dominican Republic",
	"cultivationCountryCode": "MO",
	"companyEmail": "undefined@gmail.com",
	"manufacturingCountries": [
		"Cristabel",
		"Averyl",
		"Gianina",
		"Joceline",
		"Fred"
	],
	"salesDetails": [
		{
			"itemsSold": "0",
			"price": "76.087",
			"soldDate": "2022-09-24"
		},
		{
			"itemsSold": "1",
			"price": "52.206",
			"soldDate": "2022-07-04"
		},
		{
			"itemsSold": "2",
			"price": "76.409",
			"soldDate": "2022-03-26"
		}
	]
}