{
	"random": "87",
	"price": "24.025",
	"isReadyForSale": "true",
	"listedDate": "2022-06-23",
	"particulars": "Not For Sale",
	"name": "Millie",
	"cultivationCity": "Antananarivo",
	"cultivationCountry": "Bangladesh",
	"cultivationCountryCode": "MZ",
	"companyEmail": "undefined@gmail.com",
	"manufacturingCountries": [
		"Kamilah",
		"Di",
		"Queenie",
		"Lolita",
		"Randa"
	],
	"salesDetails": [
		{
			"itemsSold": "0",
			"price": "80.984",
			"soldDate": "2022-10-12"
		},
		{
			"itemsSold": "1",
			"price": "82.528",
			"soldDate": "2022-07-27"
		},
		{
			"itemsSold": "2",
			"price": "20.133",
			"soldDate": "2022-03-31"
		}
	]
}