{
	"random": "20",
	"price": "100.452",
	"isReadyForSale": "true",
	"listedDate": "2022-07-15",
	"particulars": "DairyProduct",
	"name": "Madeleine",
	"cultivationCity": "Malé",
	"cultivationCountry": "Australia",
	"cultivationCountryCode": "TR",
	"companyEmail": "undefined@gmail.com",
	"manufacturingCountries": [
		"Hyacinthe",
		"Margalo",
		"Jennica",
		"Alejandra",
		"Maurene"
	],
	"salesDetails": [
		{
			"itemsSold": "0",
			"price": "63.001",
			"soldDate": "2022-09-21"
		},
		{
			"itemsSold": "1",
			"price": "32.584",
			"soldDate": "2022-10-27"
		},
		{
			"itemsSold": "2",
			"price": "42.744",
			"soldDate": "2022-03-21"
		}
	]
}