{
	"random": "67",
	"price": "29.258",
	"isReadyForSale": "true",
	"listedDate": "2022-02-21",
	"particulars": "DairyProduct",
	"name": "Cam",
	"cultivationCity": "Djibouti (city)",
	"cultivationCountry": "Iran, Islamic Republic Of",
	"cultivationCountryCode": "TZ",
	"companyEmail": "undefined@gmail.com",
	"manufacturingCountries": [
		"Kimberley",
		"Perry",
		"Tarra",
		"Myrtice",
		"Mildrid"
	],
	"salesDetails": [
		{
			"itemsSold": "0",
			"price": "32.369",
			"soldDate": "2022-01-04"
		},
		{
			"itemsSold": "1",
			"price": "15.563",
			"soldDate": "2022-10-03"
		},
		{
			"itemsSold": "2",
			"price": "92.663",
			"soldDate": "2022-02-25"
		}
	]
}