{
	"random": "100",
	"price": "48.4",
	"isReadyForSale": "false",
	"listedDate": "2022-05-13",
	"particulars": "Artifically Flavoured",
	"name": "Vita",
	"cultivationCity": "Ipoh",
	"cultivationCountry": "Armenia",
	"cultivationCountryCode": "TZ",
	"companyEmail": "undefined@gmail.com",
	"manufacturingCountries": [
		"Delilah",
		"Mireielle",
		"Marcelline",
		"Gisela",
		"Goldie"
	],
	"salesDetails": [
		{
			"itemsSold": "0",
			"price": "57.766",
			"soldDate": "2022-11-21"
		},
		{
			"itemsSold": "1",
			"price": "55.282",
			"soldDate": "2022-07-18"
		},
		{
			"itemsSold": "2",
			"price": "61.494",
			"soldDate": "2022-12-24"
		}
	]
}