{
	"random": "65",
	"price": "46.293",
	"isReadyForSale": "false",
	"listedDate": "2022-10-30",
	"particulars": "Artifically Flavoured",
	"name": "Ashlee",
	"cultivationCity": "Lviv",
	"cultivationCountry": "Maldives",
	"cultivationCountryCode": "HN",
	"companyEmail": "undefined@gmail.com",
	"manufacturingCountries": [
		"Nelle",
		"Leontine",
		"Heddie",
		"Lauryn",
		"Suzette"
	],
	"salesDetails": [
		{
			"itemsSold": "0",
			"price": "39.738",
			"soldDate": "2022-06-08"
		},
		{
			"itemsSold": "1",
			"price": "21.079",
			"soldDate": "2022-10-05"
		},
		{
			"itemsSold": "2",
			"price": "8.777",
			"soldDate": "2022-04-30"
		}
	]
}