{
	"random": "71",
	"price": "39.427",
	"isReadyForSale": "true",
	"listedDate": "2022-12-10",
	"particulars": "Artifically Flavoured",
	"name": "Lyssa",
	"cultivationCity": "Yerevan",
	"cultivationCountry": "Turks and Caicos Islands",
	"cultivationCountryCode": "JM",
	"companyEmail": "undefined@gmail.com",
	"manufacturingCountries": [
		"Candi",
		"Jacquetta",
		"Ebonee",
		"Yetty",
		"Jennica"
	],
	"salesDetails": [
		{
			"itemsSold": "0",
			"price": "50.249",
			"soldDate": "2022-04-01"
		},
		{
			"itemsSold": "1",
			"price": "8.449",
			"soldDate": "2022-08-02"
		},
		{
			"itemsSold": "2",
			"price": "87.088",
			"soldDate": "2022-05-18"
		}
	]
}