{
	"random": "20",
	"price": "45.986",
	"isReadyForSale": "false",
	"listedDate": "2022-07-20",
	"particulars": "Artifically Flavoured",
	"name": "Tobe",
	"cultivationCity": "Odessa",
	"cultivationCountry": "Panama",
	"cultivationCountryCode": "PF",
	"companyEmail": "undefined@gmail.com",
	"manufacturingCountries": [
		"Roxane",
		"Felice",
		"Dulce",
		"Rochette",
		"Ericka"
	],
	"salesDetails": [
		{
			"itemsSold": "0",
			"price": "98.074",
			"soldDate": "2022-01-17"
		},
		{
			"itemsSold": "1",
			"price": "34.467",
			"soldDate": "2022-07-31"
		},
		{
			"itemsSold": "2",
			"price": "14.057",
			"soldDate": "2022-08-11"
		}
	]
}