{
	"random": "53",
	"price": "31.866",
	"isReadyForSale": "false",
	"listedDate": "2022-04-25",
	"particulars": "Not For Sale",
	"name": "Henriette",
	"cultivationCity": "Baku",
	"cultivationCountry": "Saudi Arabia",
	"cultivationCountryCode": "OM",
	"companyEmail": "undefined@gmail.com",
	"manufacturingCountries": [
		"Raquela",
		"Frances",
		"Farrah",
		"Vinita",
		"Vanessa"
	],
	"salesDetails": [
		{
			"itemsSold": "0",
			"price": "3.242",
			"soldDate": "2022-05-18"
		},
		{
			"itemsSold": "1",
			"price": "60.701",
			"soldDate": "2023-01-10"
		},
		{
			"itemsSold": "2",
			"price": "28.523",
			"soldDate": "2022-09-21"
		}
	]
}