{
	"random": "96",
	"price": "27.639",
	"isReadyForSale": "true",
	"listedDate": "2022-12-17",
	"particulars": "Artifically Flavoured",
	"name": "Lacie",
	"cultivationCity": "Nanjing",
	"cultivationCountry": "United Arab Emirates",
	"cultivationCountryCode": "IT",
	"companyEmail": "undefined@gmail.com",
	"manufacturingCountries": [
		"Lisette",
		"Tobe",
		"Dorene",
		"Maryellen",
		"Ernesta"
	],
	"salesDetails": [
		{
			"itemsSold": "0",
			"price": "56.976",
			"soldDate": "2022-01-06"
		},
		{
			"itemsSold": "1",
			"price": "78.781",
			"soldDate": "2022-12-14"
		},
		{
			"itemsSold": "2",
			"price": "21.019",
			"soldDate": "2022-08-14"
		}
	]
}