{
	"random": "70",
	"price": "66.123",
	"isReadyForSale": "true",
	"listedDate": "2022-12-11",
	"particulars": "Not For Sale",
	"name": "Isa",
	"cultivationCity": "New York City",
	"cultivationCountry": "Hong Kong",
	"cultivationCountryCode": "NO",
	"companyEmail": "undefined@gmail.com",
	"manufacturingCountries": [
		"Amelia",
		"Margarette",
		"Ellette",
		"Mamie",
		"Cecile"
	],
	"salesDetails": [
		{
			"itemsSold": "0",
			"price": "11.291",
			"soldDate": "2022-06-17"
		},
		{
			"itemsSold": "1",
			"price": "28.573",
			"soldDate": "2022-01-27"
		},
		{
			"itemsSold": "2",
			"price": "96.189",
			"soldDate": "2022-07-22"
		}
	]
}