{
	"random": "89",
	"price": "53.585",
	"isReadyForSale": "true",
	"listedDate": "2022-12-02",
	"particulars": "Artifically Flavoured",
	"name": "Abbie",
	"cultivationCity": "Rotterdam",
	"cultivationCountry": "Guyana",
	"cultivationCountryCode": "SZ",
	"companyEmail": "undefined@gmail.com",
	"manufacturingCountries": [
		"Orelia",
		"Lory",
		"Brietta",
		"Aurelie",
		"Tatiania"
	],
	"salesDetails": [
		{
			"itemsSold": "0",
			"price": "72.821",
			"soldDate": "2022-05-04"
		},
		{
			"itemsSold": "1",
			"price": "15.775",
			"soldDate": "2022-04-06"
		},
		{
			"itemsSold": "2",
			"price": "3.717",
			"soldDate": "2022-01-14"
		}
	]
}