{
	"random": "84",
	"price": "27.789",
	"isReadyForSale": "false",
	"listedDate": "2022-11-18",
	"particulars": "Not For Sale",
	"name": "Taffy",
	"cultivationCity": "Nairobi",
	"cultivationCountry": "Mozambique",
	"cultivationCountryCode": "GW",
	"companyEmail": "undefined@gmail.com",
	"manufacturingCountries": [
		"Desirae",
		"Gusella",
		"Annice",
		"Agathe",
		"Andree"
	],
	"salesDetails": [
		{
			"itemsSold": "0",
			"price": "51.708",
			"soldDate": "2022-01-14"
		},
		{
			"itemsSold": "1",
			"price": "69.043",
			"soldDate": "2022-10-31"
		},
		{
			"itemsSold": "2",
			"price": "15.613",
			"soldDate": "2022-11-25"
		}
	]
}