{
	"random": "44",
	"price": "45.941",
	"isReadyForSale": "true",
	"listedDate": "2022-10-31",
	"particulars": "Not For Sale",
	"name": "Priscilla",
	"cultivationCity": "Punta Arenas",
	"cultivationCountry": "Hong Kong",
	"cultivationCountryCode": "BJ",
	"companyEmail": "undefined@gmail.com",
	"manufacturingCountries": [
		"Vanessa",
		"Tracey",
		"Giustina",
		"Shannah",
		"Barbara"
	],
	"salesDetails": [
		{
			"itemsSold": "0",
			"price": "100.462",
			"soldDate": "2022-08-05"
		},
		{
			"itemsSold": "1",
			"price": "79.374",
			"soldDate": "2022-08-06"
		},
		{
			"itemsSold": "2",
			"price": "64.055",
			"soldDate": "2022-11-05"
		}
	]
}