{
	"random": "25",
	"price": "49.5",
	"isReadyForSale": "true",
	"listedDate": "2022-10-17",
	"particulars": "DairyProduct",
	"name": "Sibella",
	"cultivationCity": "Kano",
	"cultivationCountry": "Netherlands",
	"cultivationCountryCode": "NE",
	"companyEmail": "undefined@gmail.com",
	"manufacturingCountries": [
		"Merrie",
		"Kerrin",
		"Christy",
		"Marinna",
		"Tierney"
	],
	"salesDetails": [
		{
			"itemsSold": "0",
			"price": "67.387",
			"soldDate": "2022-09-08"
		},
		{
			"itemsSold": "1",
			"price": "12.551",
			"soldDate": "2022-04-26"
		},
		{
			"itemsSold": "2",
			"price": "73.654",
			"soldDate": "2022-12-15"
		}
	]
}