{
	"random": "27",
	"price": "10.129",
	"isReadyForSale": "true",
	"listedDate": "2022-01-14",
	"particulars": "Not For Sale",
	"name": "Gianina",
	"cultivationCity": "Bahía Blanca",
	"cultivationCountry": "Guatemala",
	"cultivationCountryCode": "AQ",
	"companyEmail": "undefined@gmail.com",
	"manufacturingCountries": [
		"Celene",
		"Briney",
		"Charissa",
		"Fanchon",
		"Augustine"
	],
	"salesDetails": [
		{
			"itemsSold": "0",
			"price": "89.904",
			"soldDate": "2022-10-12"
		},
		{
			"itemsSold": "1",
			"price": "61.413",
			"soldDate": "2022-08-23"
		},
		{
			"itemsSold": "2",
			"price": "2.943",
			"soldDate": "2022-09-27"
		}
	]
}