{
	"random": "79",
	"price": "69.286",
	"isReadyForSale": "false",
	"listedDate": "2022-07-05",
	"particulars": "Artifically Flavoured",
	"name": "Latisha",
	"cultivationCity": "Santa Cruz de Tenerife",
	"cultivationCountry": "Saint Helena",
	"cultivationCountryCode": "BW",
	"companyEmail": "undefined@gmail.com",
	"manufacturingCountries": [
		"Jaclyn",
		"Clo",
		"Emilia",
		"Dianemarie",
		"Gilda"
	],
	"salesDetails": [
		{
			"itemsSold": "0",
			"price": "95.856",
			"soldDate": "2023-01-06"
		},
		{
			"itemsSold": "1",
			"price": "84.984",
			"soldDate": "2022-08-19"
		},
		{
			"itemsSold": "2",
			"price": "1.824",
			"soldDate": "2022-12-10"
		}
	]
}