{
	"random": "4",
	"price": "95.477",
	"isReadyForSale": "true",
	"listedDate": "2022-03-10",
	"particulars": "Not For Sale",
	"name": "Aubrie",
	"cultivationCity": "Pattaya",
	"cultivationCountry": "China",
	"cultivationCountryCode": "ET",
	"companyEmail": "undefined@gmail.com",
	"manufacturingCountries": [
		"Minda",
		"Roz",
		"Gusty",
		"Elmira",
		"Lilith"
	],
	"salesDetails": [
		{
			"itemsSold": "0",
			"price": "88.932",
			"soldDate": "2022-03-29"
		},
		{
			"itemsSold": "1",
			"price": "56.142",
			"soldDate": "2022-10-10"
		},
		{
			"itemsSold": "2",
			"price": "100.23",
			"soldDate": "2022-08-05"
		}
	]
}