{
	"random": "82",
	"price": "76.261",
	"isReadyForSale": "true",
	"listedDate": "2022-06-20",
	"particulars": "DairyProduct",
	"name": "Lynea",
	"cultivationCity": "Nassau",
	"cultivationCountry": "French Guiana",
	"cultivationCountryCode": "PH",
	"companyEmail": "undefined@gmail.com",
	"manufacturingCountries": [
		"Fredericka",
		"Alia",
		"Tori",
		"Corina",
		"Di"
	],
	"salesDetails": [
		{
			"itemsSold": "0",
			"price": "28.223",
			"soldDate": "2022-03-03"
		},
		{
			"itemsSold": "1",
			"price": "38.293",
			"soldDate": "2022-07-28"
		},
		{
			"itemsSold": "2",
			"price": "24.871",
			"soldDate": "2022-12-13"
		}
	]
}