{
	"random": "20",
	"price": "25.395",
	"isReadyForSale": "false",
	"listedDate": "2022-10-27",
	"particulars": "Not For Sale",
	"name": "Frank",
	"cultivationCity": "Dodoma",
	"cultivationCountry": "Djibouti",
	"cultivationCountryCode": "MN",
	"companyEmail": "undefined@gmail.com",
	"manufacturingCountries": [
		"Agathe",
		"Ketti",
		"Adriana",
		"Brandise",
		"Andeee"
	],
	"salesDetails": [
		{
			"itemsSold": "0",
			"price": "2.77",
			"soldDate": "2022-10-07"
		},
		{
			"itemsSold": "1",
			"price": "16.706",
			"soldDate": "2022-11-18"
		},
		{
			"itemsSold": "2",
			"price": "24.761",
			"soldDate": "2022-01-22"
		}
	]
}