{
	"random": "56",
	"price": "86.625",
	"isReadyForSale": "false",
	"listedDate": "2022-09-26",
	"particulars": "DairyProduct",
	"name": "Sophia",
	"cultivationCity": "Chihuahua",
	"cultivationCountry": "Romania",
	"cultivationCountryCode": "BT",
	"companyEmail": "undefined@gmail.com",
	"manufacturingCountries": [
		"Hyacinthe",
		"Chrystel",
		"Maurene",
		"Merry",
		"Zaria"
	],
	"salesDetails": [
		{
			"itemsSold": "0",
			"price": "79.618",
			"soldDate": "2022-07-08"
		},
		{
			"itemsSold": "1",
			"price": "89.521",
			"soldDate": "2022-12-14"
		},
		{
			"itemsSold": "2",
			"price": "16.706",
			"soldDate": "2022-09-07"
		}
	]
}