{
	"random": "52",
	"price": "84.015",
	"isReadyForSale": "false",
	"listedDate": "2022-09-04",
	"particulars": "Artifically Flavoured",
	"name": "Gertrud",
	"cultivationCity": "Manama",
	"cultivationCountry": "Viet Nam",
	"cultivationCountryCode": "IR",
	"companyEmail": "undefined@gmail.com",
	"manufacturingCountries": [
		"Fina",
		"Theodora",
		"Carolina",
		"Allyce",
		"Iseabal"
	],
	"salesDetails": [
		{
			"itemsSold": "0",
			"price": "59.545",
			"soldDate": "2022-06-11"
		},
		{
			"itemsSold": "1",
			"price": "69.816",
			"soldDate": "2022-08-23"
		},
		{
			"itemsSold": "2",
			"price": "87.923",
			"soldDate": "2022-05-13"
		}
	]
}