{
	"random": "89",
	"price": "94.414",
	"isReadyForSale": "true",
	"listedDate": "2022-07-09",
	"particulars": "Artifically Flavoured",
	"name": "Tani",
	"cultivationCity": "Kobe",
	"cultivationCountry": "India",
	"cultivationCountryCode": "QA",
	"companyEmail": "undefined@gmail.com",
	"manufacturingCountries": [
		"Norine",
		"Sibella",
		"Gabi",
		"Tori",
		"Siana"
	],
	"salesDetails": [
		{
			"itemsSold": "0",
			"price": "34.109",
			"soldDate": "2022-07-24"
		},
		{
			"itemsSold": "1",
			"price": "88.397",
			"soldDate": "2022-05-07"
		},
		{
			"itemsSold": "2",
			"price": "11.162",
			"soldDate": "2022-11-17"
		}
	]
}