{
	"random": "58",
	"price": "38.559",
	"isReadyForSale": "true",
	"listedDate": "2022-09-18",
	"particulars": "Not For Sale",
	"name": "Vita",
	"cultivationCity": "Pyongyang",
	"cultivationCountry": "Tuvalu",
	"cultivationCountryCode": "IN",
	"companyEmail": "undefined@gmail.com",
	"manufacturingCountries": [
		"Isa",
		"Nikki",
		"Raina",
		"Lily",
		"Nonnah"
	],
	"salesDetails": [
		{
			"itemsSold": "0",
			"price": "72.726",
			"soldDate": "2022-03-19"
		},
		{
			"itemsSold": "1",
			"price": "70.732",
			"soldDate": "2022-08-14"
		},
		{
			"itemsSold": "2",
			"price": "94.921",
			"soldDate": "2022-11-16"
		}
	]
}