{
	"random": "46",
	"price": "78.005",
	"isReadyForSale": "true",
	"listedDate": "2022-03-15",
	"particulars": "Artifically Flavoured",
	"name": "Georgina",
	"cultivationCity": "Kano",
	"cultivationCountry": "Luxembourg",
	"cultivationCountryCode": "SI",
	"companyEmail": "undefined@gmail.com",
	"manufacturingCountries": [
		"Aurelie",
		"Robbi",
		"Lyssa",
		"Caryl",
		"Anica"
	],
	"salesDetails": [
		{
			"itemsSold": "0",
			"price": "86.979",
			"soldDate": "2022-08-21"
		},
		{
			"itemsSold": "1",
			"price": "97.426",
			"soldDate": "2022-10-17"
		},
		{
			"itemsSold": "2",
			"price": "17.014",
			"soldDate": "2022-02-07"
		}
	]
}