{
	"random": "67",
	"price": "21.322",
	"isReadyForSale": "true",
	"listedDate": "2022-11-16",
	"particulars": "DairyProduct",
	"name": "Perry",
	"cultivationCity": "Chicago",
	"cultivationCountry": "Barbados",
	"cultivationCountryCode": "BA",
	"companyEmail": "undefined@gmail.com",
	"manufacturingCountries": [
		"Riannon",
		"Frank",
		"Elise",
		"Dianemarie",
		"Kayla"
	],
	"salesDetails": [
		{
			"itemsSold": "0",
			"price": "31.023",
			"soldDate": "2022-08-08"
		},
		{
			"itemsSold": "1",
			"price": "42.589",
			"soldDate": "2022-05-02"
		},
		{
			"itemsSold": "2",
			"price": "50.848",
			"soldDate": "2022-12-28"
		}
	]
}