{
	"random": "3",
	"price": "92.984",
	"isReadyForSale": "true",
	"listedDate": "2022-05-17",
	"particulars": "Not For Sale",
	"name": "Jasmina",
	"cultivationCity": "Yogyakarta (city)",
	"cultivationCountry": "Northern Mariana Islands",
	"cultivationCountryCode": "DZ",
	"companyEmail": "undefined@gmail.com",
	"manufacturingCountries": [
		"Rivalee",
		"Goldie",
		"Gratia",
		"Ernesta",
		"Jessy"
	],
	"salesDetails": [
		{
			"itemsSold": "0",
			"price": "25.888",
			"soldDate": "2022-03-04"
		},
		{
			"itemsSold": "1",
			"price": "98.885",
			"soldDate": "2022-07-06"
		},
		{
			"itemsSold": "2",
			"price": "22.382",
			"soldDate": "2022-04-05"
		}
	]
}