{
	"random": "26",
	"price": "64.902",
	"isReadyForSale": "false",
	"listedDate": "2022-08-21",
	"particulars": "Artifically Flavoured",
	"name": "Cristabel",
	"cultivationCity": "Sofia",
	"cultivationCountry": "Libyan Arab Jamahiriya",
	"cultivationCountryCode": "RU",
	"companyEmail": "undefined@gmail.com",
	"manufacturingCountries": [
		"Deedee",
		"Pierette",
		"Meghann",
		"Theodora",
		"Edyth"
	],
	"salesDetails": [
		{
			"itemsSold": "0",
			"price": "86.267",
			"soldDate": "2022-12-25"
		},
		{
			"itemsSold": "1",
			"price": "70.853",
			"soldDate": "2022-06-27"
		},
		{
			"itemsSold": "2",
			"price": "80.485",
			"soldDate": "2022-07-13"
		}
	]
}