{
	"random": "11",
	"price": "28.922",
	"isReadyForSale": "true",
	"listedDate": "2023-01-04",
	"particulars": "Not For Sale",
	"name": "Cherilyn",
	"cultivationCity": "Dammam",
	"cultivationCountry": "Jersey",
	"cultivationCountryCode": "AF",
	"companyEmail": "undefined@gmail.com",
	"manufacturingCountries": [
		"Britte",
		"Valera",
		"Jinny",
		"June",
		"Candi"
	],
	"salesDetails": [
		{
			"itemsSold": "0",
			"price": "78.913",
			"soldDate": "2022-04-01"
		},
		{
			"itemsSold": "1",
			"price": "85.109",
			"soldDate": "2022-06-24"
		},
		{
			"itemsSold": "2",
			"price": "50.985",
			"soldDate": "2022-12-01"
		}
	]
}