{
	"random": "79",
	"price": "83.3",
	"isReadyForSale": "true",
	"listedDate": "2023-01-11",
	"particulars": "Artifically Flavoured",
	"name": "Claresta",
	"cultivationCity": "Recife",
	"cultivationCountry": "Cuba",
	"cultivationCountryCode": "MC",
	"companyEmail": "undefined@gmail.com",
	"manufacturingCountries": [
		"Heida",
		"Carmela",
		"Yolane",
		"Rebeca",
		"Valli"
	],
	"salesDetails": [
		{
			"itemsSold": "0",
			"price": "32.793",
			"soldDate": "2022-08-31"
		},
		{
			"itemsSold": "1",
			"price": "37.946",
			"soldDate": "2022-10-01"
		},
		{
			"itemsSold": "2",
			"price": "56.692",
			"soldDate": "2022-10-26"
		}
	]
}