{
	"random": "20",
	"price": "12.102",
	"isReadyForSale": "true",
	"listedDate": "2022-10-13",
	"particulars": "Not For Sale",
	"name": "Mamie",
	"cultivationCity": "Koror",
	"cultivationCountry": "Kiribati",
	"cultivationCountryCode": "BW",
	"companyEmail": "undefined@gmail.com",
	"manufacturingCountries": [
		"Gloria",
		"Kelly",
		"Ottilie",
		"Alie",
		"Violet"
	],
	"salesDetails": [
		{
			"itemsSold": "0",
			"price": "65.9",
			"soldDate": "2022-10-11"
		},
		{
			"itemsSold": "1",
			"price": "88.272",
			"soldDate": "2022-12-24"
		},
		{
			"itemsSold": "2",
			"price": "85.336",
			"soldDate": "2022-11-17"
		}
	]
}