{
	"random": "96",
	"price": "11.836",
	"isReadyForSale": "false",
	"listedDate": "2022-07-28",
	"particulars": "Artifically Flavoured",
	"name": "Nonnah",
	"cultivationCity": "Tskhinvali",
	"cultivationCountry": "Cook Islands",
	"cultivationCountryCode": "EC",
	"companyEmail": "undefined@gmail.com",
	"manufacturingCountries": [
		"Abbie",
		"Cissiee",
		"Felice",
		"Valli",
		"Merrie"
	],
	"salesDetails": [
		{
			"itemsSold": "0",
			"price": "19.74",
			"soldDate": "2022-10-31"
		},
		{
			"itemsSold": "1",
			"price": "17.446",
			"soldDate": "2022-01-06"
		},
		{
			"itemsSold": "2",
			"price": "25.398",
			"soldDate": "2022-04-28"
		}
	]
}