{
	"random": "28",
	"price": "6.733",
	"isReadyForSale": "true",
	"listedDate": "2022-02-07",
	"particulars": "Artifically Flavoured",
	"name": "Keelia",
	"cultivationCity": "Albuquerque",
	"cultivationCountry": "Venezuela",
	"cultivationCountryCode": "DO",
	"companyEmail": "undefined@gmail.com",
	"manufacturingCountries": [
		"Kathy",
		"Karlee",
		"Alyssa",
		"Gusella",
		"Meriel"
	],
	"salesDetails": [
		{
			"itemsSold": "0",
			"price": "66.182",
			"soldDate": "2022-12-11"
		},
		{
			"itemsSold": "1",
			"price": "37.401",
			"soldDate": "2022-06-28"
		},
		{
			"itemsSold": "2",
			"price": "70.114",
			"soldDate": "2022-03-24"
		}
	]
}