{
	"random": "59",
	"price": "45.657",
	"isReadyForSale": "false",
	"listedDate": "2022-01-31",
	"particulars": "Artifically Flavoured",
	"name": "Corina",
	"cultivationCity": "Abidjan",
	"cultivationCountry": "Zambia",
	"cultivationCountryCode": "MO",
	"companyEmail": "undefined@gmail.com",
	"manufacturingCountries": [
		"Shandie",
		"Sonni",
		"Fidelia",
		"Margette",
		"Olivette"
	],
	"salesDetails": [
		{
			"itemsSold": "0",
			"price": "56.669",
			"soldDate": "2022-08-21"
		},
		{
			"itemsSold": "1",
			"price": "100.802",
			"soldDate": "2022-05-11"
		},
		{
			"itemsSold": "2",
			"price": "100.474",
			"soldDate": "2022-04-10"
		}
	]
}