{
	"random": "13",
	"price": "89.328",
	"isReadyForSale": "true",
	"listedDate": "2022-08-23",
	"particulars": "DairyProduct",
	"name": "Rochette",
	"cultivationCity": "Valletta",
	"cultivationCountry": "Sweden",
	"cultivationCountryCode": "MU",
	"companyEmail": "undefined@gmail.com",
	"manufacturingCountries": [
		"Hannis",
		"Nyssa",
		"Linzy",
		"Basia",
		"Dorthy"
	],
	"salesDetails": [
		{
			"itemsSold": "0",
			"price": "30.502",
			"soldDate": "2022-04-01"
		},
		{
			"itemsSold": "1",
			"price": "33.893",
			"soldDate": "2022-09-17"
		},
		{
			"itemsSold": "2",
			"price": "38.396",
			"soldDate": "2022-06-11"
		}
	]
}