{
	"random": "57",
	"price": "5.587",
	"isReadyForSale": "true",
	"listedDate": "2022-07-08",
	"particulars": "Artifically Flavoured",
	"name": "Leontine",
	"cultivationCity": "Austin",
	"cultivationCountry": "Northern Mariana Islands",
	"cultivationCountryCode": "PA",
	"companyEmail": "undefined@gmail.com",
	"manufacturingCountries": [
		"Deloria",
		"Gale",
		"Tani",
		"Nessie",
		"Yolane"
	],
	"salesDetails": [
		{
			"itemsSold": "0",
			"price": "27.396",
			"soldDate": "2022-08-06"
		},
		{
			"itemsSold": "1",
			"price": "40.956",
			"soldDate": "2022-02-01"
		},
		{
			"itemsSold": "2",
			"price": "21.149",
			"soldDate": "2022-06-14"
		}
	]
}