{
	"random": "13",
	"price": "73.145",
	"isReadyForSale": "true",
	"listedDate": "2022-03-31",
	"particulars": "DairyProduct",
	"name": "Kalina",
	"cultivationCity": "Juneau",
	"cultivationCountry": "Indonesia",
	"cultivationCountryCode": "DE",
	"companyEmail": "undefined@gmail.com",
	"manufacturingCountries": [
		"Viki",
		"Jasmina",
		"Goldie",
		"Christy",
		"Mahalia"
	],
	"salesDetails": [
		{
			"itemsSold": "0",
			"price": "97.326",
			"soldDate": "2022-09-09"
		},
		{
			"itemsSold": "1",
			"price": "56.379",
			"soldDate": "2022-03-24"
		},
		{
			"itemsSold": "2",
			"price": "55.435",
			"soldDate": "2022-12-04"
		}
	]
}