{
	"random": "18",
	"price": "23.842",
	"isReadyForSale": "false",
	"listedDate": "2022-09-13",
	"particulars": "Not For Sale",
	"name": "Eadie",
	"cultivationCity": "Dublin",
	"cultivationCountry": "Australia",
	"cultivationCountryCode": "ZM",
	"companyEmail": "undefined@gmail.com",
	"manufacturingCountries": [
		"Hope",
		"Rubie",
		"Penelopa",
		"Jessy",
		"Lorenza"
	],
	"salesDetails": [
		{
			"itemsSold": "0",
			"price": "36.707",
			"soldDate": "2022-04-16"
		},
		{
			"itemsSold": "1",
			"price": "91.534",
			"soldDate": "2022-06-12"
		},
		{
			"itemsSold": "2",
			"price": "92.562",
			"soldDate": "2022-08-05"
		}
	]
}