{
	"random": "41",
	"price": "53.047",
	"isReadyForSale": "false",
	"listedDate": "2022-08-14",
	"particulars": "DairyProduct",
	"name": "Eugine",
	"cultivationCity": "Seville",
	"cultivationCountry": "Antigua and Barbuda",
	"cultivationCountryCode": "BH",
	"companyEmail": "undefined@gmail.com",
	"manufacturingCountries": [
		"Maridel",
		"Margarette",
		"Hildegaard",
		"Suzette",
		"Jan"
	],
	"salesDetails": [
		{
			"itemsSold": "0",
			"price": "15.392",
			"soldDate": "2022-03-05"
		},
		{
			"itemsSold": "1",
			"price": "4.149",
			"soldDate": "2022-04-30"
		},
		{
			"itemsSold": "2",
			"price": "46.017",
			"soldDate": "2022-04-17"
		}
	]
}