{
	"random": "64",
	"price": "53.38",
	"isReadyForSale": "false",
	"listedDate": "2022-01-11",
	"particulars": "DairyProduct",
	"name": "Madeleine",
	"cultivationCity": "Cali",
	"cultivationCountry": "Ireland",
	"cultivationCountryCode": "AL",
	"companyEmail": "undefined@gmail.com",
	"manufacturingCountries": [
		"Lexine",
		"Korrie",
		"Emylee",
		"Cissiee",
		"Natka"
	],
	"salesDetails": [
		{
			"itemsSold": "0",
			"price": "77.592",
			"soldDate": "2022-10-05"
		},
		{
			"itemsSold": "1",
			"price": "51.933",
			"soldDate": "2022-03-26"
		},
		{
			"itemsSold": "2",
			"price": "1.103",
			"soldDate": "2022-08-29"
		}
	]
}