{
	"random": "84",
	"price": "12.997",
	"isReadyForSale": "false",
	"listedDate": "2022-06-18",
	"particulars": "Artifically Flavoured",
	"name": "Katleen",
	"cultivationCity": "Surabaya",
	"cultivationCountry": "Somalia",
	"cultivationCountryCode": "UZ",
	"companyEmail": "undefined@gmail.com",
	"manufacturingCountries": [
		"Talya",
		"Consuela",
		"Fredericka",
		"Kristan",
		"Dianemarie"
	],
	"salesDetails": [
		{
			"itemsSold": "0",
			"price": "99.382",
			"soldDate": "2022-06-25"
		},
		{
			"itemsSold": "1",
			"price": "6.265",
			"soldDate": "2022-02-12"
		},
		{
			"itemsSold": "2",
			"price": "34.562",
			"soldDate": "2022-07-04"
		}
	]
}