{
	"random": "77",
	"price": "11.922",
	"isReadyForSale": "false",
	"listedDate": "2022-10-10",
	"particulars": "DairyProduct",
	"name": "Madeleine",
	"cultivationCity": "Salzburg",
	"cultivationCountry": "Ethiopia",
	"cultivationCountryCode": "CZ",
	"companyEmail": "undefined@gmail.com",
	"manufacturingCountries": [
		"Livvyy",
		"Marline",
		"Peri",
		"Beth",
		"Berta"
	],
	"salesDetails": [
		{
			"itemsSold": "0",
			"price": "68",
			"soldDate": "2022-05-07"
		},
		{
			"itemsSold": "1",
			"price": "27.505",
			"soldDate": "2022-08-11"
		},
		{
			"itemsSold": "2",
			"price": "31.961",
			"soldDate": "2022-02-19"
		}
	]
}