{
	"random": "58",
	"price": "8.022",
	"isReadyForSale": "true",
	"listedDate": "2022-04-09",
	"particulars": "Not For Sale",
	"name": "Ardys",
	"cultivationCity": "Pekanbaru",
	"cultivationCountry": "Korea, Republic of",
	"cultivationCountryCode": "YT",
	"companyEmail": "undefined@gmail.com",
	"manufacturingCountries": [
		"Zaria",
		"Danika",
		"Dianemarie",
		"June",
		"Malina"
	],
	"salesDetails": [
		{
			"itemsSold": "0",
			"price": "24.001",
			"soldDate": "2022-06-30"
		},
		{
			"itemsSold": "1",
			"price": "45.409",
			"soldDate": "2022-11-18"
		},
		{
			"itemsSold": "2",
			"price": "49.954",
			"soldDate": "2022-08-28"
		}
	]
}