{
	"random": "48",
	"price": "74.943",
	"isReadyForSale": "false",
	"listedDate": "2022-06-15",
	"particulars": "Artifically Flavoured",
	"name": "Olwen",
	"cultivationCity": "San Fernando",
	"cultivationCountry": "Myanmar",
	"cultivationCountryCode": "VN",
	"companyEmail": "undefined@gmail.com",
	"manufacturingCountries": [
		"Alex",
		"Marylou",
		"Fred",
		"Christal",
		"Aaren"
	],
	"salesDetails": [
		{
			"itemsSold": "0",
			"price": "2.113",
			"soldDate": "2022-12-11"
		},
		{
			"itemsSold": "1",
			"price": "84.655",
			"soldDate": "2022-12-07"
		},
		{
			"itemsSold": "2",
			"price": "50.327",
			"soldDate": "2022-09-01"
		}
	]
}