{
	"random": "94",
	"price": "93.511",
	"isReadyForSale": "true",
	"listedDate": "2022-01-12",
	"particulars": "DairyProduct",
	"name": "Binny",
	"cultivationCity": "Petropavlovsk-Kamchatsky",
	"cultivationCountry": "United States",
	"cultivationCountryCode": "KY",
	"companyEmail": "undefined@gmail.com",
	"manufacturingCountries": [
		"Clementine",
		"Winny",
		"Wendi",
		"Heida",
		"Yetty"
	],
	"salesDetails": [
		{
			"itemsSold": "0",
			"price": "99.453",
			"soldDate": "2022-11-06"
		},
		{
			"itemsSold": "1",
			"price": "8.496",
			"soldDate": "2022-07-10"
		},
		{
			"itemsSold": "2",
			"price": "14.25",
			"soldDate": "2022-04-06"
		}
	]
}