{
	"random": "81",
	"price": "79.947",
	"isReadyForSale": "false",
	"listedDate": "2022-03-03",
	"particulars": "Artifically Flavoured",
	"name": "Elyssa",
	"cultivationCity": "Guwahati",
	"cultivationCountry": "Bosnia and Herzegovina",
	"cultivationCountryCode": "BF",
	"companyEmail": "undefined@gmail.com",
	"manufacturingCountries": [
		"Dari",
		"Nerta",
		"Addia",
		"Maisey",
		"Hettie"
	],
	"salesDetails": [
		{
			"itemsSold": "0",
			"price": "81.106",
			"soldDate": "2022-02-14"
		},
		{
			"itemsSold": "1",
			"price": "40.725",
			"soldDate": "2022-02-12"
		},
		{
			"itemsSold": "2",
			"price": "60.953",
			"soldDate": "2022-08-29"
		}
	]
}