{
	"random": "28",
	"price": "28.184",
	"isReadyForSale": "true",
	"listedDate": "2022-10-27",
	"particulars": "DairyProduct",
	"name": "Goldie",
	"cultivationCity": "Tunis",
	"cultivationCountry": "Korea, Republic of",
	"cultivationCountryCode": "MG",
	"companyEmail": "undefined@gmail.com",
	"manufacturingCountries": [
		"Kathy",
		"Josephine",
		"Georgetta",
		"Althea",
		"Janis"
	],
	"salesDetails": [
		{
			"itemsSold": "0",
			"price": "28.487",
			"soldDate": "2022-05-23"
		},
		{
			"itemsSold": "1",
			"price": "93.051",
			"soldDate": "2022-08-17"
		},
		{
			"itemsSold": "2",
			"price": "4.104",
			"soldDate": "2022-07-09"
		}
	]
}