{
	"random": "85",
	"price": "48.399",
	"isReadyForSale": "true",
	"listedDate": "2022-08-31",
	"particulars": "DairyProduct",
	"name": "Joelly",
	"cultivationCity": "Multan",
	"cultivationCountry": "New Zealand",
	"cultivationCountryCode": "RW",
	"companyEmail": "undefined@gmail.com",
	"manufacturingCountries": [
		"Kelly",
		"Harmonia",
		"Cristabel",
		"Katuscha",
		"Brandise"
	],
	"salesDetails": [
		{
			"itemsSold": "0",
			"price": "38.923",
			"soldDate": "2022-08-09"
		},
		{
			"itemsSold": "1",
			"price": "22.813",
			"soldDate": "2022-11-23"
		},
		{
			"itemsSold": "2",
			"price": "70.918",
			"soldDate": "2022-10-17"
		}
	]
}