{
	"random": "65",
	"price": "4.143",
	"isReadyForSale": "false",
	"listedDate": "2022-04-27",
	"particulars": "Artifically Flavoured",
	"name": "Nerta",
	"cultivationCity": "Monaco",
	"cultivationCountry": "Greece",
	"cultivationCountryCode": "PR",
	"companyEmail": "undefined@gmail.com",
	"manufacturingCountries": [
		"Aimil",
		"Taffy",
		"Shel",
		"Aigneis",
		"Maurene"
	],
	"salesDetails": [
		{
			"itemsSold": "0",
			"price": "52.14",
			"soldDate": "2022-01-20"
		},
		{
			"itemsSold": "1",
			"price": "67.056",
			"soldDate": "2022-12-31"
		},
		{
			"itemsSold": "2",
			"price": "93.066",
			"soldDate": "2022-01-29"
		}
	]
}