{
	"random": "66",
	"price": "3.881",
	"isReadyForSale": "true",
	"listedDate": "2022-04-19",
	"particulars": "DairyProduct",
	"name": "Kayla",
	"cultivationCity": "Las Palmas de Gran Canaria",
	"cultivationCountry": "Yemen",
	"cultivationCountryCode": "BZ",
	"companyEmail": "undefined@gmail.com",
	"manufacturingCountries": [
		"Cassandra",
		"Florencia",
		"Darci",
		"Kathi",
		"Gwenneth"
	],
	"salesDetails": [
		{
			"itemsSold": "0",
			"price": "37.165",
			"soldDate": "2022-05-24"
		},
		{
			"itemsSold": "1",
			"price": "98.18",
			"soldDate": "2022-12-28"
		},
		{
			"itemsSold": "2",
			"price": "7.013",
			"soldDate": "2022-03-24"
		}
	]
}