{
	"random": "91",
	"price": "9.95",
	"isReadyForSale": "true",
	"listedDate": "2022-01-11",
	"particulars": "Artifically Flavoured",
	"name": "Florencia",
	"cultivationCity": "Yogyakarta (city)",
	"cultivationCountry": "Mauritius",
	"cultivationCountryCode": "GM",
	"companyEmail": "undefined@gmail.com",
	"manufacturingCountries": [
		"Anica",
		"Gerrie",
		"Perry",
		"Josephine",
		"Margalo"
	],
	"salesDetails": [
		{
			"itemsSold": "0",
			"price": "95.664",
			"soldDate": "2022-12-26"
		},
		{
			"itemsSold": "1",
			"price": "39.463",
			"soldDate": "2022-11-09"
		},
		{
			"itemsSold": "2",
			"price": "92.84",
			"soldDate": "2022-09-26"
		}
	]
}