{
	"random": "96",
	"price": "10.746",
	"isReadyForSale": "true",
	"listedDate": "2022-07-25",
	"particulars": "DairyProduct",
	"name": "Gretal",
	"cultivationCity": "Panama City",
	"cultivationCountry": "Cote D\"Ivoire",
	"cultivationCountryCode": "KZ",
	"companyEmail": "undefined@gmail.com",
	"manufacturingCountries": [
		"Gwyneth",
		"Robbi",
		"Kaja",
		"Mureil",
		"Consuela"
	],
	"salesDetails": [
		{
			"itemsSold": "0",
			"price": "90.181",
			"soldDate": "2022-05-28"
		},
		{
			"itemsSold": "1",
			"price": "48.419",
			"soldDate": "2022-10-13"
		},
		{
			"itemsSold": "2",
			"price": "5.168",
			"soldDate": "2022-07-27"
		}
	]
}