{
	"random": "29",
	"price": "96.133",
	"isReadyForSale": "false",
	"listedDate": "2022-04-03",
	"particulars": "Not For Sale",
	"name": "Chrystel",
	"cultivationCity": "Nashville",
	"cultivationCountry": "Cyprus",
	"cultivationCountryCode": "US",
	"companyEmail": "undefined@gmail.com",
	"manufacturingCountries": [
		"Alyda",
		"Angelique",
		"Alyda",
		"Nollie",
		"Raquela"
	],
	"salesDetails": [
		{
			"itemsSold": "0",
			"price": "28.098",
			"soldDate": "2022-05-22"
		},
		{
			"itemsSold": "1",
			"price": "59.271",
			"soldDate": "2022-04-05"
		},
		{
			"itemsSold": "2",
			"price": "56.211",
			"soldDate": "2022-08-08"
		}
	]
}