{
	"random": "77",
	"price": "88.242",
	"isReadyForSale": "true",
	"listedDate": "2022-05-08",
	"particulars": "Not For Sale",
	"name": "Demetris",
	"cultivationCity": "Shigatse",
	"cultivationCountry": "Afghanistan",
	"cultivationCountryCode": "SG",
	"companyEmail": "undefined@gmail.com",
	"manufacturingCountries": [
		"Dennie",
		"Binny",
		"Peri",
		"Judy",
		"Jolyn"
	],
	"salesDetails": [
		{
			"itemsSold": "0",
			"price": "70.437",
			"soldDate": "2022-03-30"
		},
		{
			"itemsSold": "1",
			"price": "62.286",
			"soldDate": "2022-12-01"
		},
		{
			"itemsSold": "2",
			"price": "88.94",
			"soldDate": "2022-03-12"
		}
	]
}