{
	"random": "53",
	"price": "63.867",
	"isReadyForSale": "false",
	"listedDate": "2022-12-17",
	"particulars": "Artifically Flavoured",
	"name": "Katharina",
	"cultivationCity": "Mendoza",
	"cultivationCountry": "Eritrea",
	"cultivationCountryCode": "SA",
	"companyEmail": "undefined@gmail.com",
	"manufacturingCountries": [
		"Nikki",
		"Desirae",
		"Marjie",
		"Dawn",
		"Reeba"
	],
	"salesDetails": [
		{
			"itemsSold": "0",
			"price": "96.749",
			"soldDate": "2022-03-16"
		},
		{
			"itemsSold": "1",
			"price": "83.265",
			"soldDate": "2022-05-29"
		},
		{
			"itemsSold": "2",
			"price": "59.947",
			"soldDate": "2022-06-12"
		}
	]
}