{
	"random": "82",
	"price": "26.38",
	"isReadyForSale": "true",
	"listedDate": "2022-12-16",
	"particulars": "Artifically Flavoured",
	"name": "Maridel",
	"cultivationCity": "Pristina",
	"cultivationCountry": "Moldova, Republic of",
	"cultivationCountryCode": "HN",
	"companyEmail": "undefined@gmail.com",
	"manufacturingCountries": [
		"Dorice",
		"Harmonia",
		"Kalina",
		"Beth",
		"Mureil"
	],
	"salesDetails": [
		{
			"itemsSold": "0",
			"price": "84.705",
			"soldDate": "2022-05-17"
		},
		{
			"itemsSold": "1",
			"price": "32.356",
			"soldDate": "2022-11-15"
		},
		{
			"itemsSold": "2",
			"price": "46.313",
			"soldDate": "2022-03-15"
		}
	]
}