{
	"random": "23",
	"price": "14.803",
	"isReadyForSale": "false",
	"listedDate": "2022-05-16",
	"particulars": "Not For Sale",
	"name": "Susan",
	"cultivationCity": "Tabriz",
	"cultivationCountry": "Martinique",
	"cultivationCountryCode": "UZ",
	"companyEmail": "undefined@gmail.com",
	"manufacturingCountries": [
		"Frances",
		"Libbie",
		"Valeda",
		"Hettie",
		"Janenna"
	],
	"salesDetails": [
		{
			"itemsSold": "0",
			"price": "85.172",
			"soldDate": "2022-02-02"
		},
		{
			"itemsSold": "1",
			"price": "94.086",
			"soldDate": "2022-12-10"
		},
		{
			"itemsSold": "2",
			"price": "11.555",
			"soldDate": "2022-10-31"
		}
	]
}