{
	"random": "32",
	"price": "15.5",
	"isReadyForSale": "true",
	"listedDate": "2022-08-09",
	"particulars": "Not For Sale",
	"name": "Pearline",
	"cultivationCity": "Sri Jayawardenapura-Kotte",
	"cultivationCountry": "Algeria",
	"cultivationCountryCode": "BZ",
	"companyEmail": "undefined@gmail.com",
	"manufacturingCountries": [
		"Annice",
		"Dolli",
		"Roberta",
		"Netty",
		"Gianina"
	],
	"salesDetails": [
		{
			"itemsSold": "0",
			"price": "91.26",
			"soldDate": "2022-04-23"
		},
		{
			"itemsSold": "1",
			"price": "21.111",
			"soldDate": "2022-05-05"
		},
		{
			"itemsSold": "2",
			"price": "92.708",
			"soldDate": "2022-03-04"
		}
	]
}