{
	"random": "2",
	"price": "17.552",
	"isReadyForSale": "false",
	"listedDate": "2022-06-06",
	"particulars": "DairyProduct",
	"name": "Madalyn",
	"cultivationCity": "San Antonio",
	"cultivationCountry": "Marshall Islands",
	"cultivationCountryCode": "QA",
	"companyEmail": "undefined@gmail.com",
	"manufacturingCountries": [
		"Nita",
		"Aubrie",
		"Liana",
		"Dolli",
		"Brianna"
	],
	"salesDetails": [
		{
			"itemsSold": "0",
			"price": "34.51",
			"soldDate": "2022-05-07"
		},
		{
			"itemsSold": "1",
			"price": "91.947",
			"soldDate": "2022-07-26"
		},
		{
			"itemsSold": "2",
			"price": "79.95",
			"soldDate": "2022-08-27"
		}
	]
}