{
	"random": "65",
	"price": "80.716",
	"isReadyForSale": "false",
	"listedDate": "2022-04-21",
	"particulars": "Artifically Flavoured",
	"name": "Janeczka",
	"cultivationCity": "Guatemala City",
	"cultivationCountry": "Hong Kong",
	"cultivationCountryCode": "VI",
	"companyEmail": "undefined@gmail.com",
	"manufacturingCountries": [
		"Lily",
		"Suzette",
		"Lexine",
		"Mallory",
		"Tressa"
	],
	"salesDetails": [
		{
			"itemsSold": "0",
			"price": "3.736",
			"soldDate": "2022-02-12"
		},
		{
			"itemsSold": "1",
			"price": "46.48",
			"soldDate": "2022-07-01"
		},
		{
			"itemsSold": "2",
			"price": "100.554",
			"soldDate": "2022-04-25"
		}
	]
}