{
	"random": "87",
	"price": "24.459",
	"isReadyForSale": "false",
	"listedDate": "2022-04-22",
	"particulars": "Artifically Flavoured",
	"name": "Nannie",
	"cultivationCity": "Málaga",
	"cultivationCountry": "Saint Lucia",
	"cultivationCountryCode": "GH",
	"companyEmail": "undefined@gmail.com",
	"manufacturingCountries": [
		"Minda",
		"Maridel",
		"Dale",
		"Basia",
		"Shell"
	],
	"salesDetails": [
		{
			"itemsSold": "0",
			"price": "7.698",
			"soldDate": "2022-04-26"
		},
		{
			"itemsSold": "1",
			"price": "93.372",
			"soldDate": "2022-03-07"
		},
		{
			"itemsSold": "2",
			"price": "15.133",
			"soldDate": "2022-02-03"
		}
	]
}