{
	"random": "96",
	"price": "67.329",
	"isReadyForSale": "true",
	"listedDate": "2022-05-19",
	"particulars": "Artifically Flavoured",
	"name": "Andree",
	"cultivationCity": "Kiev",
	"cultivationCountry": "India",
	"cultivationCountryCode": "MR",
	"companyEmail": "undefined@gmail.com",
	"manufacturingCountries": [
		"Tiffie",
		"Ana",
		"Brianna",
		"Sonni",
		"Averyl"
	],
	"salesDetails": [
		{
			"itemsSold": "0",
			"price": "85.663",
			"soldDate": "2022-03-26"
		},
		{
			"itemsSold": "1",
			"price": "3.858",
			"soldDate": "2022-03-01"
		},
		{
			"itemsSold": "2",
			"price": "23.491",
			"soldDate": "2022-04-15"
		}
	]
}