{
	"random": "32",
	"price": "82.69",
	"isReadyForSale": "false",
	"listedDate": "2022-05-09",
	"particulars": "Artifically Flavoured",
	"name": "Verla",
	"cultivationCity": "Tripoli",
	"cultivationCountry": "China",
	"cultivationCountryCode": "GP",
	"companyEmail": "undefined@gmail.com",
	"manufacturingCountries": [
		"Judy",
		"Carree",
		"Cathyleen",
		"Rivalee",
		"Keelia"
	],
	"salesDetails": [
		{
			"itemsSold": "0",
			"price": "28.201",
			"soldDate": "2022-07-06"
		},
		{
			"itemsSold": "1",
			"price": "34.109",
			"soldDate": "2022-04-05"
		},
		{
			"itemsSold": "2",
			"price": "14.518",
			"soldDate": "2022-10-22"
		}
	]
}