{
	"random": "27",
	"price": "93.524",
	"isReadyForSale": "true",
	"listedDate": "2022-03-23",
	"particulars": "Artifically Flavoured",
	"name": "Aryn",
	"cultivationCity": "Dili",
	"cultivationCountry": "Libyan Arab Jamahiriya",
	"cultivationCountryCode": "CU",
	"companyEmail": "undefined@gmail.com",
	"manufacturingCountries": [
		"Judy",
		"Madelle",
		"Brena",
		"Annora",
		"Daphne"
	],
	"salesDetails": [
		{
			"itemsSold": "0",
			"price": "3.631",
			"soldDate": "2022-04-20"
		},
		{
			"itemsSold": "1",
			"price": "25.187",
			"soldDate": "2023-01-10"
		},
		{
			"itemsSold": "2",
			"price": "51.168",
			"soldDate": "2022-04-18"
		}
	]
}