{
	"random": "26",
	"price": "77.298",
	"isReadyForSale": "false",
	"listedDate": "2022-12-12",
	"particulars": "Not For Sale",
	"name": "Florie",
	"cultivationCity": "Wellington",
	"cultivationCountry": "San Marino",
	"cultivationCountryCode": "CG",
	"companyEmail": "undefined@gmail.com",
	"manufacturingCountries": [
		"Teddie",
		"Millie",
		"Chickie",
		"Laurene",
		"Rosabelle"
	],
	"salesDetails": [
		{
			"itemsSold": "0",
			"price": "63.248",
			"soldDate": "2022-08-07"
		},
		{
			"itemsSold": "1",
			"price": "66.796",
			"soldDate": "2022-10-23"
		},
		{
			"itemsSold": "2",
			"price": "53.653",
			"soldDate": "2022-01-06"
		}
	]
}