{
	"random": "78",
	"price": "89.53",
	"isReadyForSale": "true",
	"listedDate": "2022-09-28",
	"particulars": "DairyProduct",
	"name": "Michaelina",
	"cultivationCity": "Lobamba",
	"cultivationCountry": "Brazil",
	"cultivationCountryCode": "CL",
	"companyEmail": "undefined@gmail.com",
	"manufacturingCountries": [
		"Lelah",
		"Leanna",
		"Barbara",
		"Suzette",
		"Wanda"
	],
	"salesDetails": [
		{
			"itemsSold": "0",
			"price": "80.296",
			"soldDate": "2022-01-12"
		},
		{
			"itemsSold": "1",
			"price": "88.849",
			"soldDate": "2022-03-02"
		},
		{
			"itemsSold": "2",
			"price": "39.658",
			"soldDate": "2022-10-24"
		}
	]
}