{
	"random": "91",
	"price": "33.363",
	"isReadyForSale": "false",
	"listedDate": "2022-01-20",
	"particulars": "Not For Sale",
	"name": "Elbertina",
	"cultivationCity": "Bratislava",
	"cultivationCountry": "Paraguay",
	"cultivationCountryCode": "LT",
	"companyEmail": "undefined@gmail.com",
	"manufacturingCountries": [
		"Ardenia",
		"Clarice",
		"Willetta",
		"Cacilie",
		"Betta"
	],
	"salesDetails": [
		{
			"itemsSold": "0",
			"price": "99.486",
			"soldDate": "2022-07-17"
		},
		{
			"itemsSold": "1",
			"price": "68.564",
			"soldDate": "2022-07-24"
		},
		{
			"itemsSold": "2",
			"price": "21.463",
			"soldDate": "2022-12-03"
		}
	]
}