{
	"random": "15",
	"price": "3.213",
	"isReadyForSale": "true",
	"listedDate": "2022-05-03",
	"particulars": "Not For Sale",
	"name": "Flo",
	"cultivationCity": "Adana",
	"cultivationCountry": "Costa Rica",
	"cultivationCountryCode": "SR",
	"companyEmail": "undefined@gmail.com",
	"manufacturingCountries": [
		"Jan",
		"Robinia",
		"Evita",
		"Mathilda",
		"Pierette"
	],
	"salesDetails": [
		{
			"itemsSold": "0",
			"price": "40.126",
			"soldDate": "2022-01-18"
		},
		{
			"itemsSold": "1",
			"price": "40.596",
			"soldDate": "2022-10-12"
		},
		{
			"itemsSold": "2",
			"price": "80.689",
			"soldDate": "2022-05-07"
		}
	]
}