{
	"random": "24",
	"price": "74.663",
	"isReadyForSale": "false",
	"listedDate": "2022-02-15",
	"particulars": "DairyProduct",
	"name": "Joane",
	"cultivationCity": "Fairbanks",
	"cultivationCountry": "Canada",
	"cultivationCountryCode": "TV",
	"companyEmail": "undefined@gmail.com",
	"manufacturingCountries": [
		"Christian",
		"Tarra",
		"Leia",
		"Dawn",
		"Daune"
	],
	"salesDetails": [
		{
			"itemsSold": "0",
			"price": "64.196",
			"soldDate": "2022-09-09"
		},
		{
			"itemsSold": "1",
			"price": "19.021",
			"soldDate": "2022-01-29"
		},
		{
			"itemsSold": "2",
			"price": "87.316",
			"soldDate": "2022-11-27"
		}
	]
}