{
	"random": "77",
	"price": "59.405",
	"isReadyForSale": "true",
	"listedDate": "2022-09-02",
	"particulars": "Not For Sale",
	"name": "Zaria",
	"cultivationCity": "Chihuahua",
	"cultivationCountry": "Hong Kong",
	"cultivationCountryCode": "SR",
	"companyEmail": "undefined@gmail.com",
	"manufacturingCountries": [
		"Nicoli",
		"Rhoda",
		"Wileen",
		"Alia",
		"Bertine"
	],
	"salesDetails": [
		{
			"itemsSold": "0",
			"price": "62.719",
			"soldDate": "2022-04-04"
		},
		{
			"itemsSold": "1",
			"price": "18.532",
			"soldDate": "2022-04-11"
		},
		{
			"itemsSold": "2",
			"price": "35.174",
			"soldDate": "2022-03-30"
		}
	]
}