{
	"random": "75",
	"price": "20.688",
	"isReadyForSale": "true",
	"listedDate": "2022-02-20",
	"particulars": "Not For Sale",
	"name": "Kaia",
	"cultivationCity": "Pyongyang",
	"cultivationCountry": "Lao People\"S Democratic Republic",
	"cultivationCountryCode": "CI",
	"companyEmail": "undefined@gmail.com",
	"manufacturingCountries": [
		"Tamqrah",
		"Jaclyn",
		"Christal",
		"Selia",
		"Nyssa"
	],
	"salesDetails": [
		{
			"itemsSold": "0",
			"price": "16.565",
			"soldDate": "2022-07-07"
		},
		{
			"itemsSold": "1",
			"price": "59.748",
			"soldDate": "2022-09-16"
		},
		{
			"itemsSold": "2",
			"price": "44.295",
			"soldDate": "2022-06-15"
		}
	]
}