{
	"random": "100",
	"price": "93.28",
	"isReadyForSale": "true",
	"listedDate": "2022-11-07",
	"particulars": "Not For Sale",
	"name": "Jinny",
	"cultivationCity": "Ndola",
	"cultivationCountry": "Korea, Democratic People\"S Republic of",
	"cultivationCountryCode": "ST",
	"companyEmail": "undefined@gmail.com",
	"manufacturingCountries": [
		"Charlena",
		"Phedra",
		"Perry",
		"Alie",
		"Kore"
	],
	"salesDetails": [
		{
			"itemsSold": "0",
			"price": "27.343",
			"soldDate": "2022-07-18"
		},
		{
			"itemsSold": "1",
			"price": "23.684",
			"soldDate": "2022-10-09"
		},
		{
			"itemsSold": "2",
			"price": "60.859",
			"soldDate": "2022-02-14"
		}
	]
}