{
	"random": "20",
	"price": "56.275",
	"isReadyForSale": "true",
	"listedDate": "2022-05-27",
	"particulars": "Not For Sale",
	"name": "Christian",
	"cultivationCity": "Hobart",
	"cultivationCountry": "Cayman Islands",
	"cultivationCountryCode": "WS",
	"companyEmail": "undefined@gmail.com",
	"manufacturingCountries": [
		"Glynnis",
		"Nannie",
		"Goldie",
		"Isa",
		"Daphne"
	],
	"salesDetails": [
		{
			"itemsSold": "0",
			"price": "79.546",
			"soldDate": "2022-03-01"
		},
		{
			"itemsSold": "1",
			"price": "94.127",
			"soldDate": "2022-04-22"
		},
		{
			"itemsSold": "2",
			"price": "6.87",
			"soldDate": "2022-03-02"
		}
	]
}