{
	"random": "30",
	"price": "99.326",
	"isReadyForSale": "true",
	"listedDate": "2022-12-25",
	"particulars": "DairyProduct",
	"name": "Nicoli",
	"cultivationCity": "Suez",
	"cultivationCountry": "Heard Island and Mcdonald Islands",
	"cultivationCountryCode": "TN",
	"companyEmail": "undefined@gmail.com",
	"manufacturingCountries": [
		"Corene",
		"Lesly",
		"Nita",
		"Estell",
		"Britte"
	],
	"salesDetails": [
		{
			"itemsSold": "0",
			"price": "98.978",
			"soldDate": "2022-09-30"
		},
		{
			"itemsSold": "1",
			"price": "29.217",
			"soldDate": "2022-04-24"
		},
		{
			"itemsSold": "2",
			"price": "99.386",
			"soldDate": "2022-07-02"
		}
	]
}