{
	"random": "6",
	"price": "70.417",
	"isReadyForSale": "true",
	"listedDate": "2022-07-07",
	"particulars": "DairyProduct",
	"name": "Gerianna",
	"cultivationCity": "Bloemfontein",
	"cultivationCountry": "Luxembourg",
	"cultivationCountryCode": "CM",
	"companyEmail": "undefined@gmail.com",
	"manufacturingCountries": [
		"Lesly",
		"Rochette",
		"Ernesta",
		"Flo",
		"Bibby"
	],
	"salesDetails": [
		{
			"itemsSold": "0",
			"price": "37.066",
			"soldDate": "2023-01-09"
		},
		{
			"itemsSold": "1",
			"price": "5.898",
			"soldDate": "2022-01-08"
		},
		{
			"itemsSold": "2",
			"price": "75.968",
			"soldDate": "2022-12-09"
		}
	]
}