{
	"random": "72",
	"price": "26.215",
	"isReadyForSale": "true",
	"listedDate": "2022-02-09",
	"particulars": "DairyProduct",
	"name": "Gui",
	"cultivationCity": "Tskhinvali",
	"cultivationCountry": "Mauritius",
	"cultivationCountryCode": "ZA",
	"companyEmail": "undefined@gmail.com",
	"manufacturingCountries": [
		"Inga",
		"Viviene",
		"Misha",
		"Pierette",
		"Aurore"
	],
	"salesDetails": [
		{
			"itemsSold": "0",
			"price": "88.595",
			"soldDate": "2022-03-23"
		},
		{
			"itemsSold": "1",
			"price": "78.1",
			"soldDate": "2022-08-21"
		},
		{
			"itemsSold": "2",
			"price": "98.128",
			"soldDate": "2022-09-16"
		}
	]
}