{
	"random": "98",
	"price": "17.948",
	"isReadyForSale": "false",
	"listedDate": "2022-04-09",
	"particulars": "Not For Sale",
	"name": "Tobe",
	"cultivationCity": "Curitiba",
	"cultivationCountry": "Saint Lucia",
	"cultivationCountryCode": "BO",
	"companyEmail": "undefined@gmail.com",
	"manufacturingCountries": [
		"Jeanna",
		"Cathyleen",
		"Myrtice",
		"Tina",
		"Elise"
	],
	"salesDetails": [
		{
			"itemsSold": "0",
			"price": "17.4",
			"soldDate": "2022-09-17"
		},
		{
			"itemsSold": "1",
			"price": "22.525",
			"soldDate": "2022-03-13"
		},
		{
			"itemsSold": "2",
			"price": "89.038",
			"soldDate": "2022-01-19"
		}
	]
}