{
	"random": "77",
	"price": "9.694",
	"isReadyForSale": "false",
	"listedDate": "2022-01-03",
	"particulars": "DairyProduct",
	"name": "Alejandra",
	"cultivationCity": "Havana",
	"cultivationCountry": "Virgin Islands, British",
	"cultivationCountryCode": "DO",
	"companyEmail": "undefined@gmail.com",
	"manufacturingCountries": [
		"Damaris",
		"Ginnie",
		"Debee",
		"Dania",
		"Shirlee"
	],
	"salesDetails": [
		{
			"itemsSold": "0",
			"price": "98.168",
			"soldDate": "2022-08-29"
		},
		{
			"itemsSold": "1",
			"price": "35.555",
			"soldDate": "2022-08-27"
		},
		{
			"itemsSold": "2",
			"price": "24.071",
			"soldDate": "2022-03-05"
		}
	]
}