{
	"random": "36",
	"price": "68.406",
	"isReadyForSale": "false",
	"listedDate": "2022-05-23",
	"particulars": "Not For Sale",
	"name": "Dale",
	"cultivationCity": "Mandurah",
	"cultivationCountry": "Timor-Leste",
	"cultivationCountryCode": "UY",
	"companyEmail": "undefined@gmail.com",
	"manufacturingCountries": [
		"Tierney",
		"Alejandra",
		"Doro",
		"Nataline",
		"Laure"
	],
	"salesDetails": [
		{
			"itemsSold": "0",
			"price": "45.508",
			"soldDate": "2022-08-14"
		},
		{
			"itemsSold": "1",
			"price": "13.428",
			"soldDate": "2022-03-28"
		},
		{
			"itemsSold": "2",
			"price": "93.743",
			"soldDate": "2022-10-03"
		}
	]
}