{
	"random": "25",
	"price": "30.788",
	"isReadyForSale": "true",
	"listedDate": "2022-11-28",
	"particulars": "Not For Sale",
	"name": "Gretal",
	"cultivationCity": "La Serena",
	"cultivationCountry": "Malawi",
	"cultivationCountryCode": "LU",
	"companyEmail": "undefined@gmail.com",
	"manufacturingCountries": [
		"Keelia",
		"Elsie",
		"Cissiee",
		"Reeba",
		"Rani"
	],
	"salesDetails": [
		{
			"itemsSold": "0",
			"price": "80.575",
			"soldDate": "2022-01-19"
		},
		{
			"itemsSold": "1",
			"price": "81.136",
			"soldDate": "2022-03-17"
		},
		{
			"itemsSold": "2",
			"price": "67.281",
			"soldDate": "2023-01-13"
		}
	]
}