{
	"random": "68",
	"price": "13.806",
	"isReadyForSale": "true",
	"listedDate": "2022-04-02",
	"particulars": "DairyProduct",
	"name": "Ingrid",
	"cultivationCity": "Mandurah",
	"cultivationCountry": "Antigua and Barbuda",
	"cultivationCountryCode": "MM",
	"companyEmail": "undefined@gmail.com",
	"manufacturingCountries": [
		"Carol-Jean",
		"Sheelagh",
		"Rayna",
		"Carol-Jean",
		"Florencia"
	],
	"salesDetails": [
		{
			"itemsSold": "0",
			"price": "67.883",
			"soldDate": "2023-01-14"
		},
		{
			"itemsSold": "1",
			"price": "31.055",
			"soldDate": "2022-08-24"
		},
		{
			"itemsSold": "2",
			"price": "74.102",
			"soldDate": "2022-06-03"
		}
	]
}