{
	"random": "45",
	"price": "68.368",
	"isReadyForSale": "true",
	"listedDate": "2022-10-25",
	"particulars": "DairyProduct",
	"name": "Sandie",
	"cultivationCity": "Fortaleza",
	"cultivationCountry": "Saint Helena",
	"cultivationCountryCode": "DE",
	"companyEmail": "undefined@gmail.com",
	"manufacturingCountries": [
		"Daphne",
		"Blake",
		"Beth",
		"Jessy",
		"Lesly"
	],
	"salesDetails": [
		{
			"itemsSold": "0",
			"price": "2.888",
			"soldDate": "2022-05-26"
		},
		{
			"itemsSold": "1",
			"price": "97.963",
			"soldDate": "2022-07-03"
		},
		{
			"itemsSold": "2",
			"price": "53.88",
			"soldDate": "2022-01-31"
		}
	]
}