{
	"random": "56",
	"price": "45.551",
	"isReadyForSale": "false",
	"listedDate": "2022-07-06",
	"particulars": "Artifically Flavoured",
	"name": "Kayla",
	"cultivationCity": "Gibraltar",
	"cultivationCountry": "Swaziland",
	"cultivationCountryCode": "MG",
	"companyEmail": "undefined@gmail.com",
	"manufacturingCountries": [
		"Britni",
		"Marjie",
		"Candi",
		"Alexine",
		"Madalyn"
	],
	"salesDetails": [
		{
			"itemsSold": "0",
			"price": "54.509",
			"soldDate": "2022-02-24"
		},
		{
			"itemsSold": "1",
			"price": "25.151",
			"soldDate": "2022-04-14"
		},
		{
			"itemsSold": "2",
			"price": "51.797",
			"soldDate": "2022-10-16"
		}
	]
}