{
	"random": "50",
	"price": "74.62",
	"isReadyForSale": "false",
	"listedDate": "2022-01-13",
	"particulars": "Artifically Flavoured",
	"name": "Belinda",
	"cultivationCity": "Dublin",
	"cultivationCountry": "Sri Lanka",
	"cultivationCountryCode": "RE",
	"companyEmail": "undefined@gmail.com",
	"manufacturingCountries": [
		"Ermengarde",
		"Ezmeralda",
		"Feliza",
		"Elka",
		"Veda"
	],
	"salesDetails": [
		{
			"itemsSold": "0",
			"price": "73.427",
			"soldDate": "2022-02-05"
		},
		{
			"itemsSold": "1",
			"price": "58.671",
			"soldDate": "2022-01-12"
		},
		{
			"itemsSold": "2",
			"price": "45.967",
			"soldDate": "2022-01-09"
		}
	]
}