{
	"random": "27",
	"price": "91.115",
	"isReadyForSale": "false",
	"listedDate": "2022-03-14",
	"particulars": "DairyProduct",
	"name": "Bernie",
	"cultivationCity": "Marrakech",
	"cultivationCountry": "Viet Nam",
	"cultivationCountryCode": "NG",
	"companyEmail": "undefined@gmail.com",
	"manufacturingCountries": [
		"Vonny",
		"Winny",
		"Paola",
		"Lisette",
		"Dotty"
	],
	"salesDetails": [
		{
			"itemsSold": "0",
			"price": "87.933",
			"soldDate": "2022-10-07"
		},
		{
			"itemsSold": "1",
			"price": "90.278",
			"soldDate": "2022-03-17"
		},
		{
			"itemsSold": "2",
			"price": "16.761",
			"soldDate": "2022-04-21"
		}
	]
}