{
	"random": "69",
	"price": "19.265",
	"isReadyForSale": "false",
	"listedDate": "2022-04-07",
	"particulars": "Not For Sale",
	"name": "Minne",
	"cultivationCity": "Faisalabad",
	"cultivationCountry": "Saint Helena",
	"cultivationCountryCode": "UY",
	"companyEmail": "undefined@gmail.com",
	"manufacturingCountries": [
		"Viki",
		"Linet",
		"Violet",
		"Celene",
		"Tiffie"
	],
	"salesDetails": [
		{
			"itemsSold": "0",
			"price": "30.406",
			"soldDate": "2022-01-30"
		},
		{
			"itemsSold": "1",
			"price": "52.152",
			"soldDate": "2023-01-13"
		},
		{
			"itemsSold": "2",
			"price": "42.457",
			"soldDate": "2022-12-20"
		}
	]
}