{
	"random": "69",
	"price": "2.283",
	"isReadyForSale": "true",
	"listedDate": "2022-03-06",
	"particulars": "Not For Sale",
	"name": "Sheelagh",
	"cultivationCity": "Toulouse",
	"cultivationCountry": "Albania",
	"cultivationCountryCode": "MW",
	"companyEmail": "undefined@gmail.com",
	"manufacturingCountries": [
		"Chickie",
		"Trudie",
		"Rosabelle",
		"Maryellen",
		"Aubrie"
	],
	"salesDetails": [
		{
			"itemsSold": "0",
			"price": "62.346",
			"soldDate": "2022-05-31"
		},
		{
			"itemsSold": "1",
			"price": "5.068",
			"soldDate": "2022-03-28"
		},
		{
			"itemsSold": "2",
			"price": "43.56",
			"soldDate": "2022-06-21"
		}
	]
}