{
	"random": "92",
	"price": "99.875",
	"isReadyForSale": "true",
	"listedDate": "2022-07-26",
	"particulars": "DairyProduct",
	"name": "Dawn",
	"cultivationCity": "Kingston",
	"cultivationCountry": "Mexico",
	"cultivationCountryCode": "MC",
	"companyEmail": "undefined@gmail.com",
	"manufacturingCountries": [
		"Karly",
		"Sam",
		"Hallie",
		"Kelly",
		"Desirae"
	],
	"salesDetails": [
		{
			"itemsSold": "0",
			"price": "57.492",
			"soldDate": "2022-04-03"
		},
		{
			"itemsSold": "1",
			"price": "49.699",
			"soldDate": "2022-12-07"
		},
		{
			"itemsSold": "2",
			"price": "83.776",
			"soldDate": "2022-01-01"
		}
	]
}