{
	"random": "2",
	"price": "20.927",
	"isReadyForSale": "false",
	"listedDate": "2022-06-14",
	"particulars": "Not For Sale",
	"name": "Stevana",
	"cultivationCity": "Boa Vista",
	"cultivationCountry": "Russian Federation",
	"cultivationCountryCode": "TL",
	"companyEmail": "undefined@gmail.com",
	"manufacturingCountries": [
		"Ashlee",
		"Kaia",
		"Lita",
		"Lisette",
		"Shaylyn"
	],
	"salesDetails": [
		{
			"itemsSold": "0",
			"price": "46.063",
			"soldDate": "2023-01-07"
		},
		{
			"itemsSold": "1",
			"price": "82.847",
			"soldDate": "2022-06-30"
		},
		{
			"itemsSold": "2",
			"price": "53.485",
			"soldDate": "2022-11-09"
		}
	]
}