{
	"random": "29",
	"price": "48.741",
	"isReadyForSale": "true",
	"listedDate": "2022-05-30",
	"particulars": "Not For Sale",
	"name": "Selia",
	"cultivationCity": "Kathmandu",
	"cultivationCountry": "Bouvet Island",
	"cultivationCountryCode": "GE",
	"companyEmail": "undefined@gmail.com",
	"manufacturingCountries": [
		"Lynde",
		"Gui",
		"Aryn",
		"Jessamyn",
		"Kristan"
	],
	"salesDetails": [
		{
			"itemsSold": "0",
			"price": "72.827",
			"soldDate": "2022-06-29"
		},
		{
			"itemsSold": "1",
			"price": "21.255",
			"soldDate": "2022-07-21"
		},
		{
			"itemsSold": "2",
			"price": "37.255",
			"soldDate": "2022-07-10"
		}
	]
}