{
	"random": "30",
	"price": "15.059",
	"isReadyForSale": "false",
	"listedDate": "2023-01-10",
	"particulars": "Not For Sale",
	"name": "Bertine",
	"cultivationCity": "Kharkiv",
	"cultivationCountry": "Niue",
	"cultivationCountryCode": "LK",
	"companyEmail": "undefined@gmail.com",
	"manufacturingCountries": [
		"Fredericka",
		"Hollie",
		"Shirlee",
		"Candi",
		"Jasmina"
	],
	"salesDetails": [
		{
			"itemsSold": "0",
			"price": "40.657",
			"soldDate": "2022-02-01"
		},
		{
			"itemsSold": "1",
			"price": "94.052",
			"soldDate": "2022-12-06"
		},
		{
			"itemsSold": "2",
			"price": "13.441",
			"soldDate": "2022-07-06"
		}
	]
}