{
	"random": "58",
	"price": "25.319",
	"isReadyForSale": "false",
	"listedDate": "2022-09-01",
	"particulars": "DairyProduct",
	"name": "Ottilie",
	"cultivationCity": "Porto",
	"cultivationCountry": "Tanzania, United Republic of",
	"cultivationCountryCode": "CK",
	"companyEmail": "undefined@gmail.com",
	"manufacturingCountries": [
		"Maisey",
		"Jemie",
		"Alia",
		"Camile",
		"Daphne"
	],
	"salesDetails": [
		{
			"itemsSold": "0",
			"price": "93.887",
			"soldDate": "2022-03-06"
		},
		{
			"itemsSold": "1",
			"price": "61.976",
			"soldDate": "2022-08-11"
		},
		{
			"itemsSold": "2",
			"price": "2.779",
			"soldDate": "2022-01-24"
		}
	]
}