{
	"random": "95",
	"price": "95.144",
	"isReadyForSale": "true",
	"listedDate": "2022-02-21",
	"particulars": "Artifically Flavoured",
	"name": "Sam",
	"cultivationCity": "Ashgabat",
	"cultivationCountry": "Kuwait",
	"cultivationCountryCode": "EG",
	"companyEmail": "undefined@gmail.com",
	"manufacturingCountries": [
		"Elmira",
		"Theodora",
		"Meriel",
		"Abbie",
		"Dagmar"
	],
	"salesDetails": [
		{
			"itemsSold": "0",
			"price": "43.554",
			"soldDate": "2022-08-16"
		},
		{
			"itemsSold": "1",
			"price": "87.577",
			"soldDate": "2022-10-05"
		},
		{
			"itemsSold": "2",
			"price": "96.414",
			"soldDate": "2022-11-26"
		}
	]
}