{
	"random": "41",
	"price": "15.145",
	"isReadyForSale": "true",
	"listedDate": "2023-01-12",
	"particulars": "Artifically Flavoured",
	"name": "Brooks",
	"cultivationCity": "Gangtok",
	"cultivationCountry": "Saint Helena",
	"cultivationCountryCode": "MX",
	"companyEmail": "undefined@gmail.com",
	"manufacturingCountries": [
		"Yolane",
		"Eadie",
		"Allis",
		"Adelle",
		"Heida"
	],
	"salesDetails": [
		{
			"itemsSold": "0",
			"price": "95.143",
			"soldDate": "2022-10-01"
		},
		{
			"itemsSold": "1",
			"price": "11.586",
			"soldDate": "2022-10-18"
		},
		{
			"itemsSold": "2",
			"price": "84.193",
			"soldDate": "2022-08-19"
		}
	]
}