{
	"random": "97",
	"price": "17.64",
	"isReadyForSale": "true",
	"listedDate": "2022-05-21",
	"particulars": "Artifically Flavoured",
	"name": "Karolina",
	"cultivationCity": "Nouméa",
	"cultivationCountry": "RWANDA",
	"cultivationCountryCode": "SJ",
	"companyEmail": "undefined@gmail.com",
	"manufacturingCountries": [
		"Kellen",
		"Micheline",
		"Lolita",
		"Paulita",
		"Amara"
	],
	"salesDetails": [
		{
			"itemsSold": "0",
			"price": "32.834",
			"soldDate": "2022-11-17"
		},
		{
			"itemsSold": "1",
			"price": "40.942",
			"soldDate": "2022-05-27"
		},
		{
			"itemsSold": "2",
			"price": "43.343",
			"soldDate": "2022-07-03"
		}
	]
}