{
	"random": "86",
	"price": "88.893",
	"isReadyForSale": "false",
	"listedDate": "2022-01-04",
	"particulars": "DairyProduct",
	"name": "Belinda",
	"cultivationCity": "Sucre",
	"cultivationCountry": "Saudi Arabia",
	"cultivationCountryCode": "MU",
	"companyEmail": "undefined@gmail.com",
	"manufacturingCountries": [
		"Corene",
		"Kelly",
		"Robinia",
		"Talya",
		"Marcelline"
	],
	"salesDetails": [
		{
			"itemsSold": "0",
			"price": "82.202",
			"soldDate": "2022-10-31"
		},
		{
			"itemsSold": "1",
			"price": "59.72",
			"soldDate": "2022-07-17"
		},
		{
			"itemsSold": "2",
			"price": "100.132",
			"soldDate": "2022-10-27"
		}
	]
}