{
	"random": "21",
	"price": "6.995",
	"isReadyForSale": "true",
	"listedDate": "2022-11-02",
	"particulars": "DairyProduct",
	"name": "Karina",
	"cultivationCity": "Port Vila",
	"cultivationCountry": "Heard Island and Mcdonald Islands",
	"cultivationCountryCode": "PG",
	"companyEmail": "undefined@gmail.com",
	"manufacturingCountries": [
		"Letizia",
		"Sara-Ann",
		"Amara",
		"Cristabel",
		"Clarice"
	],
	"salesDetails": [
		{
			"itemsSold": "0",
			"price": "53.605",
			"soldDate": "2022-11-17"
		},
		{
			"itemsSold": "1",
			"price": "50.882",
			"soldDate": "2022-12-17"
		},
		{
			"itemsSold": "2",
			"price": "34.276",
			"soldDate": "2022-09-21"
		}
	]
}