{
	"random": "31",
	"price": "29.759",
	"isReadyForSale": "true",
	"listedDate": "2022-08-25",
	"particulars": "Artifically Flavoured",
	"name": "Concettina",
	"cultivationCity": "Basse-Terre",
	"cultivationCountry": "Turkey",
	"cultivationCountryCode": "ZM",
	"companyEmail": "undefined@gmail.com",
	"manufacturingCountries": [
		"Halette",
		"Nikki",
		"Lanna",
		"Etta",
		"Lucy"
	],
	"salesDetails": [
		{
			"itemsSold": "0",
			"price": "15.684",
			"soldDate": "2022-06-18"
		},
		{
			"itemsSold": "1",
			"price": "19.555",
			"soldDate": "2022-10-16"
		},
		{
			"itemsSold": "2",
			"price": "98.379",
			"soldDate": "2022-04-22"
		}
	]
}