{
	"random": "34",
	"price": "10.182",
	"isReadyForSale": "false",
	"listedDate": "2022-12-17",
	"particulars": "DairyProduct",
	"name": "Rozele",
	"cultivationCity": "Ahmedabad",
	"cultivationCountry": "United Arab Emirates",
	"cultivationCountryCode": "LB",
	"companyEmail": "undefined@gmail.com",
	"manufacturingCountries": [
		"Lanna",
		"Theodora",
		"Madeleine",
		"Sam",
		"Mellicent"
	],
	"salesDetails": [
		{
			"itemsSold": "0",
			"price": "24.039",
			"soldDate": "2022-11-14"
		},
		{
			"itemsSold": "1",
			"price": "74.389",
			"soldDate": "2022-02-08"
		},
		{
			"itemsSold": "2",
			"price": "74.503",
			"soldDate": "2022-06-06"
		}
	]
}