{
	"random": "16",
	"price": "53.785",
	"isReadyForSale": "false",
	"listedDate": "2022-03-19",
	"particulars": "DairyProduct",
	"name": "Goldie",
	"cultivationCity": "Cape Town",
	"cultivationCountry": "Equatorial Guinea",
	"cultivationCountryCode": "PY",
	"companyEmail": "undefined@gmail.com",
	"manufacturingCountries": [
		"Adore",
		"Isa",
		"Dulce",
		"Lorenza",
		"Dotty"
	],
	"salesDetails": [
		{
			"itemsSold": "0",
			"price": "99.254",
			"soldDate": "2022-04-03"
		},
		{
			"itemsSold": "1",
			"price": "36.424",
			"soldDate": "2022-01-04"
		},
		{
			"itemsSold": "2",
			"price": "67.605",
			"soldDate": "2022-01-25"
		}
	]
}