{
	"random": "69",
	"price": "16.302",
	"isReadyForSale": "true",
	"listedDate": "2022-04-01",
	"particulars": "Not For Sale",
	"name": "Chandra",
	"cultivationCity": "Anadyr (town)",
	"cultivationCountry": "Switzerland",
	"cultivationCountryCode": "GP",
	"companyEmail": "undefined@gmail.com",
	"manufacturingCountries": [
		"Jordan",
		"Karlee",
		"Dale",
		"Eve",
		"Cam"
	],
	"salesDetails": [
		{
			"itemsSold": "0",
			"price": "97.342",
			"soldDate": "2022-04-21"
		},
		{
			"itemsSold": "1",
			"price": "38.274",
			"soldDate": "2022-11-24"
		},
		{
			"itemsSold": "2",
			"price": "85.884",
			"soldDate": "2022-08-11"
		}
	]
}