{
	"random": "16",
	"price": "73.879",
	"isReadyForSale": "true",
	"listedDate": "2022-01-11",
	"particulars": "DairyProduct",
	"name": "Elbertina",
	"cultivationCity": "Las Palmas de Gran Canaria",
	"cultivationCountry": "Belarus",
	"cultivationCountryCode": "CY",
	"companyEmail": "undefined@gmail.com",
	"manufacturingCountries": [
		"Kelly",
		"Ann-Marie",
		"Sharai",
		"Lacie",
		"Nyssa"
	],
	"salesDetails": [
		{
			"itemsSold": "0",
			"price": "23.548",
			"soldDate": "2022-11-16"
		},
		{
			"itemsSold": "1",
			"price": "48.536",
			"soldDate": "2022-03-02"
		},
		{
			"itemsSold": "2",
			"price": "33.887",
			"soldDate": "2022-11-10"
		}
	]
}