{
	"random": "10",
	"price": "2.043",
	"isReadyForSale": "true",
	"listedDate": "2022-06-16",
	"particulars": "DairyProduct",
	"name": "Kelly",
	"cultivationCity": "Jaipur",
	"cultivationCountry": "Pakistan",
	"cultivationCountryCode": "AI",
	"companyEmail": "undefined@gmail.com",
	"manufacturingCountries": [
		"Tierney",
		"Belinda",
		"Coral",
		"Etta",
		"Cherilyn"
	],
	"salesDetails": [
		{
			"itemsSold": "0",
			"price": "25.602",
			"soldDate": "2022-11-13"
		},
		{
			"itemsSold": "1",
			"price": "1.973",
			"soldDate": "2022-08-18"
		},
		{
			"itemsSold": "2",
			"price": "67.093",
			"soldDate": "2022-06-16"
		}
	]
}