{
	"random": "39",
	"price": "20.719",
	"isReadyForSale": "false",
	"listedDate": "2022-02-16",
	"particulars": "Not For Sale",
	"name": "Vivia",
	"cultivationCity": "Houston",
	"cultivationCountry": "Bulgaria",
	"cultivationCountryCode": "MZ",
	"companyEmail": "undefined@gmail.com",
	"manufacturingCountries": [
		"Adele",
		"Jean",
		"Melisent",
		"Jillayne",
		"Flo"
	],
	"salesDetails": [
		{
			"itemsSold": "0",
			"price": "64.936",
			"soldDate": "2022-03-02"
		},
		{
			"itemsSold": "1",
			"price": "17.028",
			"soldDate": "2022-09-09"
		},
		{
			"itemsSold": "2",
			"price": "9.883",
			"soldDate": "2022-05-01"
		}
	]
}