{
	"random": "35",
	"price": "92.39",
	"isReadyForSale": "true",
	"listedDate": "2022-02-25",
	"particulars": "DairyProduct",
	"name": "Maye",
	"cultivationCity": "Davao City",
	"cultivationCountry": "Estonia",
	"cultivationCountryCode": "LR",
	"companyEmail": "undefined@gmail.com",
	"manufacturingCountries": [
		"Olwen",
		"Karly",
		"Mathilda",
		"Brandise",
		"Lynnea"
	],
	"salesDetails": [
		{
			"itemsSold": "0",
			"price": "33.191",
			"soldDate": "2022-03-10"
		},
		{
			"itemsSold": "1",
			"price": "89.99",
			"soldDate": "2022-05-16"
		},
		{
			"itemsSold": "2",
			"price": "45.215",
			"soldDate": "2022-06-15"
		}
	]
}