{
	"random": "25",
	"price": "23.681",
	"isReadyForSale": "true",
	"listedDate": "2022-09-13",
	"particulars": "DairyProduct",
	"name": "Codie",
	"cultivationCity": "Almaty",
	"cultivationCountry": "Saint Helena",
	"cultivationCountryCode": "LK",
	"companyEmail": "undefined@gmail.com",
	"manufacturingCountries": [
		"Joelly",
		"Frieda",
		"Dorene",
		"Myrtice",
		"Gianina"
	],
	"salesDetails": [
		{
			"itemsSold": "0",
			"price": "13.47",
			"soldDate": "2022-12-04"
		},
		{
			"itemsSold": "1",
			"price": "90.736",
			"soldDate": "2022-11-01"
		},
		{
			"itemsSold": "2",
			"price": "61.779",
			"soldDate": "2022-08-11"
		}
	]
}