{
	"random": "37",
	"price": "69.672",
	"isReadyForSale": "true",
	"listedDate": "2022-12-16",
	"particulars": "DairyProduct",
	"name": "Cassandra",
	"cultivationCity": "Iqaluit",
	"cultivationCountry": "Monaco",
	"cultivationCountryCode": "BT",
	"companyEmail": "undefined@gmail.com",
	"manufacturingCountries": [
		"Charlena",
		"Teddie",
		"Paule",
		"Winny",
		"Charmaine"
	],
	"salesDetails": [
		{
			"itemsSold": "0",
			"price": "69.821",
			"soldDate": "2022-04-03"
		},
		{
			"itemsSold": "1",
			"price": "65.888",
			"soldDate": "2022-12-07"
		},
		{
			"itemsSold": "2",
			"price": "49.886",
			"soldDate": "2022-08-07"
		}
	]
}