{
	"random": "3",
	"price": "80.407",
	"isReadyForSale": "true",
	"listedDate": "2022-12-27",
	"particulars": "DairyProduct",
	"name": "Christy",
	"cultivationCity": "São Paulo",
	"cultivationCountry": "Sri Lanka",
	"cultivationCountryCode": "CS",
	"companyEmail": "undefined@gmail.com",
	"manufacturingCountries": [
		"Aurore",
		"Alyda",
		"Ronna",
		"Ellette",
		"Philis"
	],
	"salesDetails": [
		{
			"itemsSold": "0",
			"price": "39.293",
			"soldDate": "2022-01-26"
		},
		{
			"itemsSold": "1",
			"price": "26.986",
			"soldDate": "2022-06-18"
		},
		{
			"itemsSold": "2",
			"price": "68.667",
			"soldDate": "2022-08-03"
		}
	]
}