{
	"random": "99",
	"price": "19.023",
	"isReadyForSale": "true",
	"listedDate": "2023-01-12",
	"particulars": "Artifically Flavoured",
	"name": "Robbi",
	"cultivationCity": "Kaliningrad",
	"cultivationCountry": "Reunion",
	"cultivationCountryCode": "GS",
	"companyEmail": "undefined@gmail.com",
	"manufacturingCountries": [
		"Isa",
		"Allis",
		"Rochette",
		"Mallory",
		"Randa"
	],
	"salesDetails": [
		{
			"itemsSold": "0",
			"price": "47.266",
			"soldDate": "2022-04-30"
		},
		{
			"itemsSold": "1",
			"price": "63.758",
			"soldDate": "2022-06-30"
		},
		{
			"itemsSold": "2",
			"price": "84.528",
			"soldDate": "2022-09-06"
		}
	]
}