{
	"random": "32",
	"price": "84.617",
	"isReadyForSale": "true",
	"listedDate": "2022-05-19",
	"particulars": "Not For Sale",
	"name": "Maridel",
	"cultivationCity": "St. John's",
	"cultivationCountry": "Cameroon",
	"cultivationCountryCode": "VE",
	"companyEmail": "undefined@gmail.com",
	"manufacturingCountries": [
		"Nessie",
		"Barbi",
		"Wendi",
		"Catrina",
		"Alameda"
	],
	"salesDetails": [
		{
			"itemsSold": "0",
			"price": "25.088",
			"soldDate": "2023-01-11"
		},
		{
			"itemsSold": "1",
			"price": "51.545",
			"soldDate": "2022-09-20"
		},
		{
			"itemsSold": "2",
			"price": "85.63",
			"soldDate": "2022-01-02"
		}
	]
}