{
	"random": "38",
	"price": "84.359",
	"isReadyForSale": "false",
	"listedDate": "2022-10-11",
	"particulars": "DairyProduct",
	"name": "Addia",
	"cultivationCity": "Colombo",
	"cultivationCountry": "Cape Verde",
	"cultivationCountryCode": "CR",
	"companyEmail": "undefined@gmail.com",
	"manufacturingCountries": [
		"Raina",
		"Brianna",
		"Dode",
		"Sue",
		"Mariann"
	],
	"salesDetails": [
		{
			"itemsSold": "0",
			"price": "20.542",
			"soldDate": "2022-02-05"
		},
		{
			"itemsSold": "1",
			"price": "11.39",
			"soldDate": "2022-01-30"
		},
		{
			"itemsSold": "2",
			"price": "55.911",
			"soldDate": "2022-08-01"
		}
	]
}