{
	"random": "47",
	"price": "65.763",
	"isReadyForSale": "true",
	"listedDate": "2022-05-14",
	"particulars": "DairyProduct",
	"name": "Dominga",
	"cultivationCity": "Portland",
	"cultivationCountry": "Argentina",
	"cultivationCountryCode": "MA",
	"companyEmail": "undefined@gmail.com",
	"manufacturingCountries": [
		"Babita",
		"Kaja",
		"Ada",
		"Gaylene",
		"Clary"
	],
	"salesDetails": [
		{
			"itemsSold": "0",
			"price": "85.416",
			"soldDate": "2022-01-22"
		},
		{
			"itemsSold": "1",
			"price": "36.637",
			"soldDate": "2022-01-30"
		},
		{
			"itemsSold": "2",
			"price": "13.083",
			"soldDate": "2022-09-12"
		}
	]
}