{
	"random": "95",
	"price": "3.498",
	"isReadyForSale": "false",
	"listedDate": "2022-08-06",
	"particulars": "DairyProduct",
	"name": "Iseabal",
	"cultivationCity": "Honolulu",
	"cultivationCountry": "Saint Kitts and Nevis",
	"cultivationCountryCode": "IQ",
	"companyEmail": "undefined@gmail.com",
	"manufacturingCountries": [
		"Cassandra",
		"Arabel",
		"Nadine",
		"Zaria",
		"Fayre"
	],
	"salesDetails": [
		{
			"itemsSold": "0",
			"price": "84.495",
			"soldDate": "2023-01-08"
		},
		{
			"itemsSold": "1",
			"price": "6.157",
			"soldDate": "2022-07-16"
		},
		{
			"itemsSold": "2",
			"price": "61.317",
			"soldDate": "2022-07-14"
		}
	]
}