{
	"random": "86",
	"price": "88.57",
	"isReadyForSale": "false",
	"listedDate": "2022-04-25",
	"particulars": "Not For Sale",
	"name": "Donetta",
	"cultivationCity": "São Paulo",
	"cultivationCountry": "Hong Kong",
	"cultivationCountryCode": "BD",
	"companyEmail": "undefined@gmail.com",
	"manufacturingCountries": [
		"Trudie",
		"Heida",
		"Anthia",
		"Jeanna",
		"Madalyn"
	],
	"salesDetails": [
		{
			"itemsSold": "0",
			"price": "68.497",
			"soldDate": "2022-01-14"
		},
		{
			"itemsSold": "1",
			"price": "2.956",
			"soldDate": "2022-05-27"
		},
		{
			"itemsSold": "2",
			"price": "91.838",
			"soldDate": "2022-02-24"
		}
	]
}