{
	"random": "37",
	"price": "8.796",
	"isReadyForSale": "false",
	"listedDate": "2022-06-06",
	"particulars": "DairyProduct",
	"name": "Sibella",
	"cultivationCity": "Guayaquil",
	"cultivationCountry": "Mongolia",
	"cultivationCountryCode": "JM",
	"companyEmail": "undefined@gmail.com",
	"manufacturingCountries": [
		"Jackie",
		"Pollyanna",
		"Iseabal",
		"Drucie",
		"Noelle"
	],
	"salesDetails": [
		{
			"itemsSold": "0",
			"price": "59.962",
			"soldDate": "2022-11-01"
		},
		{
			"itemsSold": "1",
			"price": "29.013",
			"soldDate": "2022-03-21"
		},
		{
			"itemsSold": "2",
			"price": "6.298",
			"soldDate": "2022-08-17"
		}
	]
}