{
	"random": "82",
	"price": "52.117",
	"isReadyForSale": "false",
	"listedDate": "2022-08-10",
	"particulars": "Not For Sale",
	"name": "Ricky",
	"cultivationCity": "Bangkok",
	"cultivationCountry": "Armenia",
	"cultivationCountryCode": "JP",
	"companyEmail": "undefined@gmail.com",
	"manufacturingCountries": [
		"Annabela",
		"Marti",
		"Gusella",
		"Shell",
		"Cassondra"
	],
	"salesDetails": [
		{
			"itemsSold": "0",
			"price": "48.977",
			"soldDate": "2022-02-18"
		},
		{
			"itemsSold": "1",
			"price": "57.598",
			"soldDate": "2022-01-12"
		},
		{
			"itemsSold": "2",
			"price": "37.396",
			"soldDate": "2022-01-15"
		}
	]
}