{
	"random": "87",
	"price": "81.065",
	"isReadyForSale": "false",
	"listedDate": "2022-11-17",
	"particulars": "Not For Sale",
	"name": "Alisha",
	"cultivationCity": "Bandung",
	"cultivationCountry": "Gibraltar",
	"cultivationCountryCode": "BH",
	"companyEmail": "undefined@gmail.com",
	"manufacturingCountries": [
		"Kate",
		"Lanna",
		"Netty",
		"Korrie",
		"Elka"
	],
	"salesDetails": [
		{
			"itemsSold": "0",
			"price": "75.882",
			"soldDate": "2022-03-17"
		},
		{
			"itemsSold": "1",
			"price": "81.553",
			"soldDate": "2022-02-22"
		},
		{
			"itemsSold": "2",
			"price": "58.094",
			"soldDate": "2022-02-18"
		}
	]
}