{
	"random": "26",
	"price": "17.084",
	"isReadyForSale": "true",
	"listedDate": "2022-06-11",
	"particulars": "Artifically Flavoured",
	"name": "Elena",
	"cultivationCity": "Nukuʻalofa",
	"cultivationCountry": "Congo, The Democratic Republic of the",
	"cultivationCountryCode": "LS",
	"companyEmail": "undefined@gmail.com",
	"manufacturingCountries": [
		"Farrah",
		"Tabbatha",
		"Bettine",
		"June",
		"Jan"
	],
	"salesDetails": [
		{
			"itemsSold": "0",
			"price": "53.13",
			"soldDate": "2022-12-16"
		},
		{
			"itemsSold": "1",
			"price": "66.188",
			"soldDate": "2022-01-02"
		},
		{
			"itemsSold": "2",
			"price": "65.107",
			"soldDate": "2022-04-01"
		}
	]
}